%YAML 1.1
%TAG !u! tag:unity3d.com,2011:
--- !u!114 &11400000
MonoBehaviour:
  m_ObjectHideFlags: 0
  m_CorrespondingSourceObject: {fileID: 0}
  m_PrefabInstance: {fileID: 0}
  m_PrefabAsset: {fileID: 0}
  m_GameObject: {fileID: 0}
  m_Enabled: 1
  m_EditorHideFlags: 0
  m_GeneratorAsset: {fileID: 0}
  m_Script: {fileID: 11500000, guid: 61c4a5ac3425520499ff3a9a203f8884, type: 3}
  m_Name: TestModelArrayProvider
  m_EditorClassIdentifier: 
  _serializedChoosedModelInfoProviderType: Wolf3DTest.TestModelInfoProvider
  _modelPaths:
  - simple_cube.obj
  - lamp.obj
  - man1.obj
  - man2.obj
