v -1.000000 0.000000 0.000000
v 1.000000 0.000000 0.000000
v 0.000000 0.000000 -1.000000
v 0.000000 0.000000 1.000000
v 0.000000 0.000000 0.000000
v -0.099499 2.872543 0.099499
v -0.099499 2.872543 -0.099499
v 0.099499 2.872543 0.099499
v 0.099499 2.872543 -0.099499
v -0.140713 2.872543 0.000000
v 0.140713 2.872543 0.000000
v 0.000000 2.872543 -0.140713
v 0.000000 2.872543 0.140713
v -0.202597 11.951686 0.202597
v -0.202597 11.951686 -0.202597
v 0.202597 11.951686 0.202597
v 0.202597 11.951686 -0.202597
v -0.286516 11.951686 0.000000
v 0.286516 11.951686 0.000000
v 0.000000 11.951686 -0.286516
v 0.000000 11.951686 0.286516
v -0.202597 12.290315 0.202597
v -0.202597 12.290315 -0.202597
v 0.202597 12.290315 0.202597
v 0.202597 12.290315 -0.202597
v -0.286516 12.290315 0.000000
v 0.286516 12.290315 0.000000
v 0.000000 12.290315 -0.286516
v 0.000000 12.290315 0.286516
v -0.147308 12.486778 0.147308
v -0.147308 12.486778 -0.147308
v 0.147308 12.486778 0.147308
v 0.147308 12.486778 -0.147308
v -0.208324 12.486778 0.000000
v 0.208324 12.486778 0.000000
v 0.000000 12.486778 -0.208324
v 0.000000 12.486778 0.208324
v 0.000000 12.486778 0.000000
v -0.919549 0.000000 1.000000
v -1.000000 0.000000 0.919549
v -0.959774 0.000000 0.989222
v -0.989222 0.000000 0.959774
v -0.621738 1.708745 0.541287
v -0.541287 1.708745 0.621738
v -0.526107 1.785521 0.526107
v -0.608588 1.714298 0.579521
v -0.601813 1.746335 0.536451
v -0.594303 1.748986 0.573853
v -0.536451 1.746335 0.601813
v -0.579521 1.714298 0.608588
v -0.573853 1.748986 0.594303
v -0.567115 1.774192 0.530943
v -0.530943 1.774192 0.567115
v -0.569917 1.767861 0.569917
v -1.000000 0.000000 -0.919549
v -0.919549 0.000000 -1.000000
v -0.989222 0.000000 -0.959774
v -0.959774 0.000000 -0.989222
v -0.526107 1.785521 -0.526107
v -0.541287 1.708745 -0.621738
v -0.621738 1.708745 -0.541287
v -0.530943 1.774192 -0.567115
v -0.567115 1.774192 -0.530943
v -0.569917 1.767861 -0.569917
v -0.579521 1.714298 -0.608588
v -0.536451 1.746335 -0.601813
v -0.573853 1.748986 -0.594303
v -0.601813 1.746335 -0.536451
v -0.608588 1.714297 -0.579521
v -0.594303 1.748986 -0.573853
v 1.000000 0.000000 0.919549
v 0.919549 0.000000 1.000000
v 0.989222 0.000000 0.959774
v 0.959774 0.000000 0.989222
v 0.526107 1.785521 0.526107
v 0.541287 1.708745 0.621738
v 0.621738 1.708745 0.541287
v 0.530943 1.774192 0.567115
v 0.567115 1.774192 0.530943
v 0.569917 1.767861 0.569917
v 0.579521 1.714298 0.608588
v 0.536451 1.746335 0.601813
v 0.573853 1.748986 0.594303
v 0.601813 1.746335 0.536451
v 0.608588 1.714297 0.579521
v 0.594303 1.748986 0.573853
v 0.919549 0.000000 -1.000000
v 1.000000 0.000000 -0.919549
v 0.959774 0.000000 -0.989222
v 0.989222 0.000000 -0.959774
v 0.526107 1.785521 -0.526107
v 0.621738 1.708745 -0.541287
v 0.541287 1.708745 -0.621738
v 0.567115 1.774192 -0.530943
v 0.530943 1.774192 -0.567115
v 0.569917 1.767861 -0.569917
v 0.608588 1.714298 -0.579521
v 0.601813 1.746335 -0.536451
v 0.594303 1.748986 -0.573853
v 0.536451 1.746335 -0.601813
v 0.579521 1.714297 -0.608588
v 0.573853 1.748986 -0.594303
v -0.621738 1.708745 0.000000
v -0.526107 1.785521 0.000000
v -0.602705 1.747133 0.000000
v -0.567701 1.775235 0.000000
v 0.621738 1.708745 0.000000
v 0.526107 1.785521 0.000000
v 0.602705 1.747133 0.000000
v 0.567701 1.775235 0.000000
v 0.000000 1.708745 -0.621738
v 0.000000 1.785521 -0.526107
v 0.000000 1.747133 -0.602705
v 0.000000 1.775235 -0.567701
v 0.000000 1.708745 0.621738
v 0.000000 1.785521 0.526107
v 0.000000 1.747133 0.602705
v 0.000000 1.775235 0.567701
v -0.355591 1.805719 0.355591
v -0.371049 1.785521 0.371049
v -0.360118 1.791437 0.360118
v -0.355591 1.805719 -0.355591
v -0.371049 1.785521 -0.371049
v -0.360118 1.791437 -0.360118
v 0.355591 1.805719 0.355591
v 0.371049 1.785521 0.371049
v 0.360118 1.791437 0.360118
v 0.355591 1.805719 -0.355591
v 0.371049 1.785521 -0.371049
v 0.360118 1.791437 -0.360118
v -0.524743 1.785521 0.000000
v -0.502881 1.805719 0.000000
v -0.509284 1.791437 0.000000
v 0.524743 1.785521 0.000000
v 0.502881 1.805719 0.000000
v 0.509284 1.791437 0.000000
v 0.000000 1.785521 -0.524743
v 0.000000 1.805719 -0.502881
v 0.000000 1.791437 -0.509284
v 0.000000 1.785521 0.524743
v 0.000000 1.805719 0.502881
v 0.000000 1.791437 0.509284
v -0.343456 2.221844 0.343456
v -0.355591 2.179306 0.355591
v -0.349523 2.209441 0.349523
v -0.353965 2.193871 0.353965
v -0.343456 2.221844 -0.343456
v -0.355591 2.179306 -0.355591
v -0.349523 2.209441 -0.349523
v -0.353965 2.193871 -0.353965
v 0.343456 2.221844 0.343456
v 0.355591 2.179306 0.355591
v 0.349523 2.209441 0.349523
v 0.353965 2.193871 0.353965
v 0.343456 2.221844 -0.343456
v 0.355591 2.179306 -0.355591
v 0.349523 2.209441 -0.349523
v 0.353965 2.193871 -0.353965
v -0.502881 2.179306 0.000000
v -0.485720 2.221844 0.000000
v -0.500582 2.193871 0.000000
v -0.494301 2.209441 0.000000
v 0.502881 2.179306 0.000000
v 0.485720 2.221844 0.000000
v 0.500582 2.193871 0.000000
v 0.494301 2.209441 0.000000
v 0.000000 2.179306 -0.502881
v 0.000000 2.221844 -0.485720
v 0.000000 2.193871 -0.500582
v 0.000000 2.209441 -0.494301
v 0.000000 2.179306 0.502881
v 0.000000 2.221844 0.485720
v 0.000000 2.193871 0.500582
v 0.000000 2.209441 0.494301
v -0.124805 2.583250 0.124805
v -0.140538 2.528100 0.140538
v -0.126913 2.564366 0.126913
v -0.132671 2.544180 0.132671
v -0.124805 2.583250 -0.124805
v -0.140538 2.528100 -0.140538
v -0.126913 2.564366 -0.126913
v -0.132671 2.544180 -0.132671
v 0.124805 2.583250 0.124805
v 0.140538 2.528100 0.140538
v 0.126913 2.564366 0.126913
v 0.132671 2.544180 0.132671
v 0.124805 2.583250 -0.124805
v 0.140538 2.528100 -0.140538
v 0.126913 2.564366 -0.126913
v 0.132671 2.544180 -0.132671
v -0.198750 2.528100 0.000000
v -0.176501 2.583250 0.000000
v -0.187626 2.544180 0.000000
v -0.179482 2.564366 0.000000
v 0.198750 2.528100 0.000000
v 0.176501 2.583250 0.000000
v 0.187626 2.544180 0.000000
v 0.179482 2.564366 0.000000
v 0.000000 2.528100 -0.198750
v 0.000000 2.583250 -0.176501
v 0.000000 2.544180 -0.187626
v 0.000000 2.564366 -0.179482
v 0.000000 2.528100 0.198750
v 0.000000 2.583250 0.176501
v 0.000000 2.544180 0.187626
v 0.000000 2.564366 0.179482
v -0.116537 2.872543 0.116537
v -0.124805 2.861739 0.124805
v -0.120671 2.871095 0.120671
v -0.123697 2.867141 0.123697
v -0.116537 2.872543 -0.116537
v -0.124805 2.861739 -0.124805
v -0.120671 2.871095 -0.120671
v -0.123697 2.867141 -0.123697
v 0.116537 2.872543 0.116537
v 0.124805 2.861739 0.124805
v 0.120671 2.871095 0.120671
v 0.123697 2.867141 0.123697
v 0.116537 2.872543 -0.116537
v 0.124805 2.861739 -0.124805
v 0.120671 2.871095 -0.120671
v 0.123697 2.867141 -0.123697
v -0.176501 2.861739 0.000000
v -0.164808 2.872543 0.000000
v -0.174935 2.867141 0.000000
v -0.170654 2.871095 0.000000
v 0.176501 2.861739 0.000000
v 0.164808 2.872543 0.000000
v 0.174935 2.867141 0.000000
v 0.170654 2.871095 0.000000
v 0.000000 2.861739 -0.176501
v 0.000000 2.872543 -0.164808
v 0.000000 2.867141 -0.174935
v 0.000000 2.871095 -0.170654
v 0.000000 2.861739 0.176501
v 0.000000 2.872543 0.164808
v 0.000000 2.867141 0.174935
v 0.000000 2.871095 0.170654
v -0.110980 11.759470 0.110980
v -0.099499 11.707007 0.099499
v -0.105239 11.743624 0.105239
v -0.101037 11.724422 0.101037
v -0.110980 11.759470 -0.110980
v -0.099499 11.707007 -0.099499
v -0.105239 11.743624 -0.105239
v -0.101037 11.724422 -0.101037
v 0.110980 11.759470 0.110980
v 0.099499 11.707007 0.099499
v 0.105239 11.743624 0.105239
v 0.101037 11.724422 0.101037
v 0.110980 11.759470 -0.110980
v 0.099499 11.707007 -0.099499
v 0.105239 11.743624 -0.105239
v 0.101037 11.724422 -0.101037
v -0.140713 11.707007 0.000000
v -0.156949 11.759470 0.000000
v -0.142888 11.724422 0.000000
v -0.148831 11.743624 0.000000
v 0.140713 11.707007 0.000000
v 0.156949 11.759470 0.000000
v 0.142888 11.724422 0.000000
v 0.148831 11.743624 0.000000
v 0.000000 11.707007 -0.140713
v 0.000000 11.759470 -0.156949
v 0.000000 11.724422 -0.142888
v 0.000000 11.743624 -0.148831
v 0.000000 11.707007 0.140713
v 0.000000 11.759470 0.156949
v 0.000000 11.724422 0.142888
v 0.000000 11.743624 0.148831
v -0.915595 0.017861 0.996046
v -0.955800 0.017919 0.985243
v -0.985243 0.017919 0.955800
v -0.996046 0.017861 0.915595
v -0.915595 0.017861 -0.996046
v -0.955800 0.017919 -0.985243
v -0.985243 0.017919 -0.955800
v -0.996046 0.017861 -0.915595
v 0.996046 0.017861 -0.915595
v 0.985243 0.017919 -0.955800
v 0.955800 0.017919 -0.985243
v 0.915595 0.017861 -0.996046
v 0.915595 0.017861 0.996046
v 0.955800 0.017919 0.985243
v 0.985243 0.017919 0.955800
v 0.996046 0.017861 0.915595
v -0.996046 0.017861 0.000000
v 0.000000 0.017861 0.996046
v 0.000000 0.017861 -0.996046
v 0.996046 0.017861 0.000000
v -0.555959 1.642466 0.636410
v -0.594270 1.647803 -0.623352
v -0.623352 1.647803 -0.594270
v -0.636410 1.642466 -0.555959
v 0.623352 1.647803 -0.594270
v 0.594270 1.647803 -0.623352
v 0.555959 1.642466 -0.636410
v 0.594270 1.647803 0.623352
v 0.623352 1.647803 0.594270
v 0.636410 1.642466 0.555959
v 0.000000 1.642466 0.636410
v 0.636410 1.642466 0.000000
v -0.594270 1.647803 0.623352
v -0.623352 1.647803 0.594270
v -0.636410 1.642466 0.555959
v -0.555959 1.642466 -0.636410
v 0.636410 1.642466 -0.555959
v 0.555959 1.642466 0.636410
v -0.636410 1.642466 0.000000
v 0.000000 1.642466 -0.636410
v -0.937321 0.101227 0.966746
v -0.966746 0.101227 0.937321
v -0.977664 0.100900 0.897213
v -0.897213 0.100900 -0.977664
v 0.977664 0.100900 -0.897213
v 0.897213 0.100900 0.977664
v -0.977664 0.100900 0.000000
v 0.000000 0.100900 -0.977664
v -0.897213 0.100900 0.977664
v -0.937321 0.101227 -0.966746
v -0.966746 0.101227 -0.937321
v -0.977664 0.100900 -0.897213
v 0.966746 0.101227 -0.937321
v 0.937321 0.101227 -0.966746
v 0.897213 0.100900 -0.977664
v 0.937321 0.101227 0.966746
v 0.966746 0.101227 0.937321
v 0.977664 0.100900 0.897213
v 0.000000 0.100900 0.977664
v 0.977664 0.100900 0.000000
v -0.140713 2.878819 0.000000
v -0.099499 2.878819 0.099499
v 0.000000 2.878819 0.140713
v 0.000000 2.878819 -0.140713
v -0.099499 2.878819 -0.099499
v 0.099499 2.878819 0.099499
v 0.140713 2.878819 0.000000
v 0.099499 2.878819 -0.099499
v -0.124805 2.622656 0.124805
v 0.000000 2.622656 0.176501
v -0.176501 2.622656 0.000000
v 0.000000 2.622656 -0.176501
v -0.124805 2.622656 -0.124805
v 0.124805 2.622656 0.124805
v 0.176501 2.622656 0.000000
v 0.124805 2.622656 -0.124805
v -0.099499 11.670729 0.099499
v 0.000000 11.670729 0.140713
v -0.099499 11.670729 -0.099499
v 0.099499 11.670729 0.099499
v 0.140713 11.670729 0.000000
v 0.099499 11.670729 -0.099499
v -0.140713 11.670729 0.000000
v 0.000000 11.670729 -0.140713
v 0.148501 12.482539 0.148501
v 0.000000 12.482539 0.210012
v 0.148501 12.482539 -0.148501
v 0.210012 12.482539 0.000000
v -0.148501 12.482539 0.148501
v 0.000000 12.482539 -0.210012
v -0.148501 12.482539 -0.148501
v -0.210012 12.482539 0.000000
v 0.000000 12.301299 0.282144
v 0.282144 12.301299 0.000000
v -0.199506 12.301299 0.199506
v -0.282144 12.301299 0.000000
v 0.199506 12.301299 0.199506
v 0.199506 12.301299 -0.199506
v 0.000000 12.301299 -0.282144
v -0.199506 12.301299 -0.199506
v 0.000000 12.273715 0.286516
v -0.202597 12.273715 0.202597
v 0.000000 12.273715 -0.286516
v 0.202597 12.273715 -0.202597
v -0.202597 12.273715 -0.202597
v -0.286516 12.273715 0.000000
v 0.286516 12.273715 0.000000
v 0.202597 12.273715 0.202597
v -0.202597 11.972781 0.202597
v 0.202597 11.972781 -0.202597
v -0.286516 11.972781 0.000000
v 0.202597 11.972781 0.202597
v 0.000000 11.972781 0.286516
v 0.000000 11.972781 -0.286516
v -0.202597 11.972781 -0.202597
v 0.286516 11.972781 0.000000
v -0.195367 11.936518 0.195367
v 0.000000 11.936518 0.276291
v -0.276291 11.936518 0.000000
v -0.195367 11.936518 -0.195367
v 0.000000 11.936518 -0.276291
v 0.195367 11.936518 0.195367
v 0.276291 11.936518 0.000000
v 0.195367 11.936518 -0.195367
v 0.842464 14.655800 0.890920
v 0.890920 14.655800 0.842464
v 0.866694 14.655800 0.884430
v 0.884430 14.655800 0.866694
v -0.842464 14.655800 -0.890920
v -0.890920 14.655800 -0.842464
v -0.866694 14.655800 -0.884430
v -0.884430 14.655800 -0.866694
v 0.842464 14.655800 -0.890920
v 0.890920 14.655800 -0.842464
v 0.866694 14.655800 -0.884430
v 0.884430 14.655800 -0.866694
v 0.647840 12.529098 -0.696296
v 0.696296 12.529098 -0.647840
v 0.649927 12.486778 -0.649927
v 0.670946 12.529099 -0.688733
v 0.647792 12.507967 -0.689775
v 0.669945 12.508861 -0.682467
v 0.689775 12.507967 -0.647792
v 0.688733 12.529099 -0.670946
v 0.682467 12.508861 -0.669945
v 0.648559 12.492433 -0.672755
v 0.672755 12.492433 -0.648559
v 0.670485 12.497925 -0.670485
v -0.647840 12.529098 -0.696296
v -0.649927 12.486778 -0.649927
v -0.696296 12.529098 -0.647840
v -0.647792 12.507967 -0.689775
v -0.670946 12.529099 -0.688733
v -0.669945 12.508861 -0.682467
v -0.672755 12.492433 -0.648559
v -0.648559 12.492433 -0.672755
v -0.670485 12.497925 -0.670485
v -0.688733 12.529099 -0.670946
v -0.689775 12.507967 -0.647792
v -0.682467 12.508861 -0.669945
v 0.696296 12.529098 0.647840
v 0.647840 12.529098 0.696296
v 0.649927 12.486778 0.649927
v 0.688733 12.529099 0.670946
v 0.689775 12.507967 0.647792
v 0.682467 12.508861 0.669945
v 0.647792 12.507967 0.689775
v 0.670946 12.529099 0.688733
v 0.669945 12.508861 0.682467
v 0.672755 12.492433 0.648559
v 0.648559 12.492433 0.672755
v 0.670485 12.497925 0.670485
v -0.647840 12.529098 0.696296
v -0.696296 12.529098 0.647840
v -0.649927 12.486778 0.649927
v -0.670946 12.529099 0.688733
v -0.647792 12.507967 0.689775
v -0.669945 12.508861 0.682467
v -0.689775 12.507967 0.647792
v -0.688733 12.529099 0.670946
v -0.682467 12.508861 0.669945
v -0.648559 12.492433 0.672755
v -0.672755 12.492433 0.648559
v -0.670485 12.497925 0.670485
v -0.842464 14.655800 0.890920
v -0.890920 14.655800 0.842464
v -0.866694 14.655800 0.884430
v -0.884430 14.655800 0.866694
v 1.039164 14.675953 0.990708
v 0.990708 14.675953 1.039164
v 1.032673 14.675953 1.014937
v 1.014937 14.675953 1.032673
v -1.039164 14.675953 -0.990708
v -0.990708 14.675953 -1.039164
v -1.032673 14.675953 -1.014937
v -1.014937 14.675953 -1.032673
v 0.990708 14.675953 -1.039164
v 1.039164 14.675953 -0.990708
v 1.014937 14.675953 -1.032673
v 1.032673 14.675953 -1.014937
v -0.990708 14.675953 1.039164
v -1.039164 14.675953 0.990708
v -1.014937 14.675953 1.032673
v -1.032673 14.675953 1.014937
v 1.039164 14.757253 0.990708
v 0.990708 14.757253 1.039164
v 1.032672 14.757253 1.014935
v 1.014935 14.757253 1.032672
v -1.039164 14.757253 -0.990708
v -0.990708 14.757253 -1.039164
v -1.032672 14.757253 -1.014935
v -1.014935 14.757253 -1.032672
v 0.990708 14.757253 -1.039164
v 1.039164 14.757253 -0.990708
v 1.014935 14.757253 -1.032672
v 1.032672 14.757253 -1.014935
v -0.990708 14.757253 1.039164
v -1.039164 14.757253 0.990708
v -1.014935 14.757253 1.032672
v -1.032672 14.757253 1.014935
v 0.600641 14.985618 0.552185
v 0.552185 14.985618 0.600641
v 0.594149 14.985618 0.576413
v 0.576413 14.985618 0.594149
v -0.600641 14.985618 -0.552185
v -0.552185 14.985618 -0.600641
v -0.594149 14.985618 -0.576413
v -0.576413 14.985618 -0.594149
v 0.552185 14.985618 -0.600641
v 0.600641 14.985618 -0.552185
v 0.576413 14.985618 -0.594149
v 0.594149 14.985618 -0.576413
v -0.552185 14.985618 0.600641
v -0.600641 14.985618 0.552185
v -0.576413 14.985618 0.594149
v -0.594149 14.985618 0.576413
v 0.302132 15.144745 0.253676
v 0.253676 15.144745 0.302132
v 0.295640 15.144745 0.277903
v 0.277903 15.144745 0.295640
v -0.302132 15.144745 -0.253676
v -0.253676 15.144745 -0.302132
v -0.295640 15.144745 -0.277903
v -0.277903 15.144745 -0.295640
v 0.253676 15.144745 -0.302132
v 0.302132 15.144745 -0.253676
v 0.277903 15.144745 -0.295640
v 0.295640 15.144745 -0.277903
v -0.253676 15.144745 0.302132
v -0.302132 15.144745 0.253676
v -0.277903 15.144745 0.295640
v -0.295640 15.144745 0.277903
v 0.253676 15.404181 0.302132
v 0.302132 15.404181 0.253676
v 0.277904 15.404181 0.295640
v 0.295640 15.404181 0.277904
v -0.253676 15.404181 -0.302132
v -0.302132 15.404181 -0.253676
v -0.277904 15.404181 -0.295640
v -0.295640 15.404181 -0.277904
v 0.302132 15.404181 -0.253676
v 0.253676 15.404181 -0.302132
v 0.295640 15.404181 -0.277904
v 0.277904 15.404181 -0.295640
v -0.302132 15.404181 0.253676
v -0.253676 15.404181 0.302132
v -0.295640 15.404181 0.277904
v -0.277904 15.404181 0.295640
v 0.887340 14.616675 -0.838884
v 0.838884 14.616675 -0.887340
v 0.880848 14.616675 -0.863112
v 0.863112 14.616675 -0.880848
v -0.887340 14.616675 0.838884
v -0.838884 14.616675 0.887340
v -0.880848 14.616675 0.863112
v -0.863112 14.616675 0.880848
v 0.887340 14.616675 0.838884
v 0.838884 14.616675 0.887340
v 0.880848 14.616675 0.863112
v 0.863112 14.616675 0.880848
v -0.887340 14.616675 -0.838884
v -0.838884 14.616675 -0.887340
v -0.880848 14.616675 -0.863112
v -0.863112 14.616675 -0.880848
v 0.253676 15.377613 -0.302132
v 0.277904 15.377613 -0.295640
v 0.295640 15.377613 -0.277904
v 0.302132 15.377613 -0.253676
v 0.253676 15.377613 0.302132
v 0.277904 15.377613 0.295640
v 0.295640 15.377613 0.277904
v 0.302132 15.377613 0.253676
v -0.253676 15.377613 0.302132
v -0.277904 15.377613 0.295640
v -0.295640 15.377613 0.277904
v -0.302132 15.377613 0.253676
v -0.253676 15.377613 -0.302132
v -0.277904 15.377613 -0.295640
v -0.295640 15.377613 -0.277904
v -0.302132 15.377613 -0.253676
v -0.648884 12.529098 -0.647840
v -0.648884 12.529098 0.647840
v -0.839927 14.616675 0.838884
v -0.839927 14.616675 -0.838884
v 0.647840 12.529098 0.647840
v 0.838884 14.616675 0.838884
v 0.647840 12.529098 -0.647840
v 0.838884 14.616675 -0.838884
v -0.264215 12.669689 0.263481
v -0.264215 12.669689 -0.263481
v 0.263171 12.669689 0.263481
v 0.263171 12.669689 -0.263481
v -0.277388 12.793072 0.276643
v -0.277388 12.793072 -0.276643
v 0.276344 12.793072 0.276643
v 0.276344 12.793072 -0.276643
v 0.009737 12.789566 -0.011320
v 0.027550 13.716646 -0.100875
v 0.044679 13.690011 -0.186988
v 0.060466 13.646760 -0.266350
v 0.074302 13.588554 -0.335912
v 0.085658 13.517631 -0.393000
v 0.094096 13.436713 -0.435420
v 0.099292 13.348911 -0.461542
v 0.101046 13.257602 -0.470363
v 0.099292 13.166293 -0.461542
v 0.094096 13.078493 -0.435420
v 0.085658 12.997576 -0.393000
v 0.074302 12.926651 -0.335912
v 0.060466 12.868444 -0.266350
v 0.044679 12.825193 -0.186988
v 0.027550 12.798560 -0.100875
v 0.044680 13.716646 -0.095679
v 0.078279 13.690011 -0.176796
v 0.109245 13.646760 -0.251553
v 0.136387 13.588554 -0.317079
v 0.158661 13.517631 -0.370855
v 0.175213 13.436713 -0.410814
v 0.185405 13.348911 -0.435420
v 0.188847 13.257602 -0.443729
v 0.185405 13.166293 -0.435420
v 0.175213 13.078493 -0.410814
v 0.158661 12.997576 -0.370855
v 0.136387 12.926651 -0.317079
v 0.109245 12.868444 -0.251553
v 0.078279 12.825193 -0.176795
v 0.044679 12.798560 -0.095678
v 0.060466 13.716646 -0.087241
v 0.109245 13.690011 -0.160244
v 0.154200 13.646760 -0.227524
v 0.193604 13.588554 -0.286496
v 0.225941 13.517631 -0.334893
v 0.249971 13.436713 -0.370855
v 0.264768 13.348911 -0.393000
v 0.269764 13.257602 -0.400478
v 0.264768 13.166293 -0.393000
v 0.249971 13.078493 -0.370855
v 0.225941 12.997576 -0.334893
v 0.193604 12.926651 -0.286496
v 0.154200 12.868444 -0.227524
v 0.109245 12.825193 -0.160244
v 0.060466 12.798560 -0.087241
v 0.074302 13.716646 -0.075885
v 0.136387 13.690011 -0.137969
v 0.193604 13.646760 -0.195187
v 0.243755 13.588554 -0.245338
v 0.284913 13.517631 -0.286496
v 0.315496 13.436713 -0.317079
v 0.334329 13.348911 -0.335912
v 0.340689 13.257602 -0.342271
v 0.334329 13.166293 -0.335912
v 0.315496 13.078493 -0.317079
v 0.284913 12.997576 -0.286496
v 0.243755 12.926651 -0.245338
v 0.193604 12.868444 -0.195187
v 0.136387 12.825193 -0.137969
v 0.074302 12.798560 -0.075885
v 0.085658 13.716646 -0.062048
v 0.158661 13.690011 -0.110828
v 0.225942 13.646760 -0.155783
v 0.284913 13.588554 -0.195187
v 0.333310 13.517631 -0.227524
v 0.369272 13.436713 -0.251553
v 0.391417 13.348911 -0.266350
v 0.398895 13.257602 -0.271347
v 0.391417 13.166293 -0.266350
v 0.369272 13.078493 -0.251553
v 0.333310 12.997576 -0.227524
v 0.284913 12.926651 -0.195187
v 0.225941 12.868444 -0.155783
v 0.158661 12.825193 -0.110828
v 0.085658 12.798560 -0.062048
v 0.094096 13.716646 -0.046262
v 0.175213 13.690011 -0.079862
v 0.249971 13.646760 -0.110828
v 0.315496 13.588554 -0.137969
v 0.369272 13.517631 -0.160244
v 0.409231 13.436713 -0.176795
v 0.433837 13.348911 -0.186988
v 0.442146 13.257602 -0.190429
v 0.433837 13.166293 -0.186988
v 0.409231 13.078493 -0.176795
v 0.369272 12.997576 -0.160244
v 0.315496 12.926651 -0.137969
v 0.249971 12.868444 -0.110828
v 0.175213 12.825193 -0.079862
v 0.094096 12.798560 -0.046262
v 0.099292 13.716646 -0.029133
v 0.185405 13.690011 -0.046262
v 0.264768 13.646760 -0.062048
v 0.334329 13.588554 -0.075885
v 0.391417 13.517631 -0.087241
v 0.433837 13.436713 -0.095678
v 0.459959 13.348911 -0.100874
v 0.468780 13.257602 -0.102629
v 0.459959 13.166293 -0.100874
v 0.433837 13.078493 -0.095679
v 0.391417 12.997576 -0.087241
v 0.334329 12.926651 -0.075885
v 0.264768 12.868444 -0.062048
v 0.185405 12.825193 -0.046262
v 0.099292 12.798560 -0.029133
v 0.101046 13.716646 -0.011320
v 0.188847 13.690011 -0.011320
v 0.269764 13.646760 -0.011320
v 0.340688 13.588554 -0.011320
v 0.398895 13.517631 -0.011320
v 0.442146 13.436713 -0.011320
v 0.468780 13.348911 -0.011320
v 0.477773 13.257602 -0.011320
v 0.468780 13.166293 -0.011320
v 0.442146 13.078493 -0.011320
v 0.398895 12.997576 -0.011320
v 0.340688 12.926651 -0.011320
v 0.269764 12.868444 -0.011320
v 0.188847 12.825193 -0.011320
v 0.101046 12.798560 -0.011320
v 0.099292 13.716646 0.006494
v 0.185405 13.690011 0.023623
v 0.264768 13.646760 0.039409
v 0.334329 13.588554 0.053246
v 0.391417 13.517631 0.064601
v 0.433837 13.436713 0.073039
v 0.459959 13.348911 0.078235
v 0.468780 13.257602 0.079990
v 0.459959 13.166293 0.078235
v 0.433837 13.078493 0.073039
v 0.391417 12.997576 0.064601
v 0.334329 12.926651 0.053246
v 0.264768 12.868444 0.039409
v 0.185405 12.825193 0.023623
v 0.099292 12.798560 0.006494
v 0.094096 13.716646 0.023623
v 0.175213 13.690011 0.057223
v 0.249971 13.646760 0.088188
v 0.315496 13.588554 0.115330
v 0.369272 13.517631 0.137605
v 0.409231 13.436713 0.154156
v 0.433837 13.348911 0.164349
v 0.442146 13.257602 0.167790
v 0.433837 13.166293 0.164349
v 0.409231 13.078493 0.154156
v 0.369272 12.997576 0.137605
v 0.315496 12.926651 0.115330
v 0.249970 12.868444 0.088188
v 0.175213 12.825193 0.057223
v 0.094096 12.798560 0.023623
v 0.085658 13.716646 0.039409
v 0.158661 13.690011 0.088188
v 0.225941 13.646760 0.133144
v 0.284913 13.588554 0.172547
v 0.333310 13.517631 0.204885
v 0.369272 13.436713 0.228914
v 0.391417 13.348911 0.243711
v 0.398895 13.257602 0.248707
v 0.391417 13.166293 0.243711
v 0.369272 13.078493 0.228914
v 0.333310 12.997576 0.204885
v 0.284913 12.926651 0.172547
v 0.225941 12.868444 0.133144
v 0.158661 12.825193 0.088188
v 0.085658 12.798560 0.039409
v 0.074302 13.716646 0.053246
v 0.136387 13.690011 0.115330
v 0.193604 13.646760 0.172547
v 0.243755 13.588554 0.222698
v 0.284913 13.517631 0.263857
v 0.315496 13.436713 0.294440
v 0.334329 13.348911 0.313273
v 0.340688 13.257602 0.319632
v 0.334329 13.166293 0.313273
v 0.315496 13.078493 0.294440
v 0.284913 12.997576 0.263857
v 0.243755 12.926651 0.222698
v 0.193604 12.868444 0.172547
v 0.136387 12.825193 0.115330
v 0.074302 12.798560 0.053246
v 0.060466 13.716646 0.064601
v 0.109245 13.690011 0.137605
v 0.154200 13.646760 0.204885
v 0.193604 13.588554 0.263857
v 0.225941 13.517631 0.312253
v 0.249971 13.436713 0.348215
v 0.264767 13.348911 0.370361
v 0.269764 13.257602 0.377838
v 0.264767 13.166293 0.370361
v 0.249971 13.078493 0.348215
v 0.225941 12.997576 0.312253
v 0.193604 12.926651 0.263857
v 0.154200 12.868444 0.204885
v 0.109245 12.825193 0.137605
v 0.060466 12.798560 0.064601
v 0.044679 13.716646 0.073039
v 0.078279 13.690011 0.154156
v 0.109245 13.646760 0.228914
v 0.136387 13.588554 0.294440
v 0.158661 13.517631 0.348215
v 0.175213 13.436713 0.388174
v 0.185405 13.348911 0.412781
v 0.188847 13.257602 0.421089
v 0.185405 13.166293 0.412781
v 0.175213 13.078493 0.388174
v 0.158661 12.997576 0.348215
v 0.136387 12.926651 0.294440
v 0.109245 12.868444 0.228914
v 0.078279 12.825193 0.154156
v 0.044679 12.798560 0.073039
v 0.027550 13.716646 0.078235
v 0.044679 13.690011 0.164349
v 0.060466 13.646760 0.243711
v 0.074302 13.588554 0.313273
v 0.085658 13.517631 0.370361
v 0.094096 13.436713 0.412781
v 0.099292 13.348911 0.438903
v 0.101046 13.257602 0.447723
v 0.099292 13.166293 0.438903
v 0.094096 13.078493 0.412781
v 0.085658 12.997576 0.370361
v 0.074302 12.926651 0.313273
v 0.060466 12.868444 0.243711
v 0.044679 12.825193 0.164349
v 0.027550 12.798560 0.078235
v 0.009737 13.716646 0.079990
v 0.009737 13.690011 0.167790
v 0.009737 13.646760 0.248707
v 0.009737 13.588554 0.319632
v 0.009737 13.517631 0.377838
v 0.009737 13.436713 0.421089
v 0.009737 13.348911 0.447723
v 0.009737 13.257602 0.456717
v 0.009737 13.166293 0.447723
v 0.009737 13.078493 0.421089
v 0.009737 12.997576 0.377838
v 0.009737 12.926651 0.319632
v 0.009737 12.868444 0.248707
v 0.009737 12.825193 0.167790
v 0.009737 12.798560 0.079990
v -0.008077 13.716646 0.078235
v -0.025206 13.690011 0.164349
v -0.040992 13.646760 0.243711
v -0.054829 13.588554 0.313273
v -0.066184 13.517631 0.370361
v -0.074622 13.436713 0.412781
v -0.079818 13.348911 0.438903
v -0.081573 13.257602 0.447723
v -0.079818 13.166293 0.438903
v -0.074622 13.078493 0.412781
v -0.066184 12.997576 0.370361
v -0.054829 12.926651 0.313273
v -0.040992 12.868444 0.243711
v -0.025206 12.825193 0.164348
v -0.008077 12.798560 0.078235
v 0.009737 13.725639 -0.011320
v -0.025206 13.716646 0.073039
v -0.058805 13.690011 0.154156
v -0.089771 13.646760 0.228914
v -0.116913 13.588554 0.294440
v -0.139187 13.517631 0.348215
v -0.155739 13.436713 0.388174
v -0.165931 13.348911 0.412781
v -0.169373 13.257602 0.421089
v -0.165931 13.166293 0.412781
v -0.155739 13.078493 0.388174
v -0.139187 12.997576 0.348215
v -0.116913 12.926651 0.294440
v -0.089771 12.868444 0.228914
v -0.058805 12.825193 0.154156
v -0.025206 12.798560 0.073039
v -0.040992 13.716646 0.064601
v -0.089771 13.690011 0.137605
v -0.134726 13.646760 0.204885
v -0.174130 13.588554 0.263856
v -0.206468 13.517631 0.312253
v -0.230497 13.436713 0.348215
v -0.245294 13.348911 0.370360
v -0.250290 13.257602 0.377838
v -0.245294 13.166293 0.370360
v -0.230497 13.078493 0.348215
v -0.206468 12.997576 0.312253
v -0.174130 12.926651 0.263856
v -0.134726 12.868444 0.204885
v -0.089771 12.825193 0.137605
v -0.040992 12.798560 0.064601
v -0.054829 13.716646 0.053246
v -0.116913 13.690011 0.115330
v -0.174130 13.646760 0.172547
v -0.224281 13.588554 0.222698
v -0.265439 13.517631 0.263856
v -0.296022 13.436713 0.294440
v -0.314855 13.348911 0.313273
v -0.321215 13.257602 0.319632
v -0.314855 13.166293 0.313273
v -0.296022 13.078493 0.294440
v -0.265439 12.997576 0.263856
v -0.224281 12.926651 0.222698
v -0.174130 12.868444 0.172547
v -0.116913 12.825193 0.115330
v -0.054829 12.798560 0.053246
v -0.066184 13.716646 0.039409
v -0.139187 13.690011 0.088188
v -0.206468 13.646760 0.133144
v -0.265439 13.588554 0.172547
v -0.313836 13.517631 0.204885
v -0.349798 13.436713 0.228914
v -0.371943 13.348911 0.243711
v -0.379421 13.257602 0.248707
v -0.371943 13.166293 0.243711
v -0.349798 13.078493 0.228914
v -0.313836 12.997576 0.204885
v -0.265439 12.926651 0.172547
v -0.206468 12.868444 0.133144
v -0.139187 12.825193 0.088188
v -0.066184 12.798560 0.039409
v -0.074622 13.716646 0.023623
v -0.155739 13.690011 0.057223
v -0.230497 13.646760 0.088188
v -0.296023 13.588554 0.115330
v -0.349798 13.517631 0.137604
v -0.389757 13.436713 0.154156
v -0.414363 13.348911 0.164348
v -0.422672 13.257602 0.167790
v -0.414363 13.166293 0.164348
v -0.389757 13.078493 0.154156
v -0.349798 12.997576 0.137604
v -0.296023 12.926651 0.115330
v -0.230497 12.868444 0.088188
v -0.155739 12.825193 0.057223
v -0.074622 12.798560 0.023623
v -0.079818 13.716646 0.006494
v -0.165931 13.690011 0.023623
v -0.245294 13.646760 0.039409
v -0.314856 13.588554 0.053246
v -0.371943 13.517631 0.064601
v -0.414363 13.436713 0.073039
v -0.440486 13.348911 0.078235
v -0.449306 13.257602 0.079990
v -0.440486 13.166293 0.078235
v -0.414363 13.078493 0.073039
v -0.371943 12.997576 0.064601
v -0.314856 12.926651 0.053246
v -0.245294 12.868444 0.039409
v -0.165931 12.825193 0.023623
v -0.079818 12.798560 0.006494
v -0.081573 13.716646 -0.011320
v -0.169373 13.690011 -0.011320
v -0.250290 13.646760 -0.011320
v -0.321215 13.588554 -0.011320
v -0.379421 13.517631 -0.011320
v -0.422672 13.436713 -0.011320
v -0.449306 13.348911 -0.011320
v -0.458299 13.257602 -0.011320
v -0.449306 13.166293 -0.011320
v -0.422672 13.078493 -0.011320
v -0.379421 12.997576 -0.011320
v -0.321215 12.926651 -0.011320
v -0.250290 12.868444 -0.011320
v -0.169373 12.825193 -0.011320
v -0.081572 12.798560 -0.011320
v -0.079818 13.716646 -0.029133
v -0.165931 13.690011 -0.046262
v -0.245294 13.646760 -0.062048
v -0.314856 13.588554 -0.075885
v -0.371943 13.517631 -0.087241
v -0.414363 13.436713 -0.095678
v -0.440485 13.348911 -0.100875
v -0.449306 13.257602 -0.102629
v -0.440485 13.166293 -0.100875
v -0.414363 13.078493 -0.095678
v -0.371943 12.997576 -0.087241
v -0.314856 12.926651 -0.075885
v -0.245294 12.868444 -0.062048
v -0.165931 12.825193 -0.046262
v -0.079818 12.798560 -0.029133
v -0.074622 13.716646 -0.046262
v -0.155739 13.690011 -0.079862
v -0.230497 13.646760 -0.110828
v -0.296022 13.588554 -0.137969
v -0.349798 13.517631 -0.160244
v -0.389757 13.436713 -0.176795
v -0.414363 13.348911 -0.186988
v -0.422672 13.257602 -0.190429
v -0.414363 13.166293 -0.186988
v -0.389757 13.078493 -0.176795
v -0.349798 12.997576 -0.160244
v -0.296022 12.926651 -0.137969
v -0.230497 12.868444 -0.110828
v -0.155739 12.825193 -0.079862
v -0.074622 12.798560 -0.046262
v -0.066184 13.716646 -0.062048
v -0.139187 13.690011 -0.110828
v -0.206468 13.646760 -0.155783
v -0.265439 13.588554 -0.195187
v -0.313836 13.517631 -0.227524
v -0.349798 13.436713 -0.251553
v -0.371943 13.348911 -0.266350
v -0.379421 13.257602 -0.271347
v -0.371943 13.166293 -0.266350
v -0.349798 13.078493 -0.251553
v -0.313836 12.997576 -0.227524
v -0.265439 12.926651 -0.195187
v -0.206468 12.868444 -0.155783
v -0.139187 12.825193 -0.110828
v -0.066184 12.798560 -0.062048
v -0.054829 13.716646 -0.075885
v -0.116913 13.690011 -0.137969
v -0.174130 13.646760 -0.195186
v -0.224281 13.588554 -0.245338
v -0.265439 13.517631 -0.286496
v -0.296022 13.436713 -0.317079
v -0.314855 13.348911 -0.335912
v -0.321215 13.257602 -0.342271
v -0.314855 13.166293 -0.335912
v -0.296022 13.078493 -0.317079
v -0.265439 12.997576 -0.286496
v -0.224281 12.926651 -0.245338
v -0.174130 12.868444 -0.195186
v -0.116913 12.825193 -0.137969
v -0.054829 12.798560 -0.075885
v -0.040992 13.716646 -0.087241
v -0.089771 13.690011 -0.160244
v -0.134726 13.646760 -0.227524
v -0.174130 13.588554 -0.286496
v -0.206467 13.517631 -0.334892
v -0.230497 13.436713 -0.370855
v -0.245294 13.348911 -0.393000
v -0.250290 13.257602 -0.400477
v -0.245294 13.166293 -0.393000
v -0.230497 13.078493 -0.370855
v -0.206467 12.997576 -0.334892
v -0.174130 12.926651 -0.286496
v -0.134726 12.868444 -0.227524
v -0.089771 12.825193 -0.160244
v -0.040992 12.798560 -0.087241
v -0.025206 13.716646 -0.095679
v -0.058805 13.690011 -0.176795
v -0.089771 13.646760 -0.251553
v -0.116913 13.588554 -0.317079
v -0.139187 13.517631 -0.370854
v -0.155739 13.436713 -0.410813
v -0.165931 13.348911 -0.435420
v -0.169373 13.257602 -0.443728
v -0.165931 13.166293 -0.435420
v -0.155739 13.078493 -0.410813
v -0.139187 12.997576 -0.370854
v -0.116913 12.926651 -0.317079
v -0.089771 12.868444 -0.251553
v -0.058805 12.825193 -0.176795
v -0.025206 12.798560 -0.095678
v -0.008077 13.716646 -0.100875
v -0.025206 13.690011 -0.186988
v -0.040992 13.646760 -0.266350
v -0.054828 13.588554 -0.335912
v -0.066184 13.517631 -0.393000
v -0.074622 13.436713 -0.435420
v -0.079818 13.348911 -0.461542
v -0.081572 13.257602 -0.470362
v -0.079818 13.166293 -0.461542
v -0.074622 13.078493 -0.435420
v -0.066184 12.997576 -0.393000
v -0.054828 12.926651 -0.335912
v -0.040992 12.868444 -0.266350
v -0.025206 12.825193 -0.186988
v -0.008077 12.798560 -0.100874
v 0.009737 13.716646 -0.102629
v 0.009737 13.690011 -0.190429
v 0.009737 13.646760 -0.271347
v 0.009737 13.588554 -0.342271
v 0.009737 13.517631 -0.400477
v 0.009737 13.436713 -0.443729
v 0.009737 13.348911 -0.470362
v 0.009737 13.257602 -0.479355
v 0.009737 13.166293 -0.470362
v 0.009737 13.078493 -0.443729
v 0.009737 12.997576 -0.400477
v 0.009737 12.926651 -0.342271
v 0.009737 12.868444 -0.271347
v 0.009737 12.825193 -0.190429
v 0.009737 12.798560 -0.102629
v 0.202808 12.719838 -0.203166
v 0.202808 12.719838 0.203166
v -0.203851 12.719838 -0.203166
v -0.203851 12.719838 0.203166
vn 0.9763 0.2161 0.0000
vn 0.9408 0.3390 0.0000
vn 0.9329 0.3410 0.1154
vn 0.9603 0.2431 0.1370
vn -0.1370 0.2431 -0.9603
vn -0.1154 0.3410 -0.9329
vn 0.0000 0.3390 -0.9408
vn 0.0000 0.2161 -0.9763
vn -0.1102 0.9878 0.1102
vn 0.0000 0.9918 0.1276
vn 0.0000 0.9905 0.1372
vn -0.0970 0.9905 0.0970
vn 0.9603 0.2431 -0.1370
vn 0.9329 0.3410 -0.1154
vn 0.1370 0.2431 0.9603
vn 0.1154 0.3410 0.9329
vn 0.0000 0.3390 0.9408
vn 0.0000 0.2161 0.9763
vn 0.0000 0.9886 0.1506
vn 0.1065 0.9886 0.1065
vn 0.4203 0.8042 0.4203
vn 0.0000 0.8042 0.5943
vn 0.1102 0.9878 0.1102
vn 0.1276 0.9918 0.0000
vn 0.1372 0.9905 0.0000
vn 0.0970 0.9905 0.0970
vn 0.0000 0.9886 -0.1506
vn -0.1065 0.9886 -0.1065
vn -0.4203 0.8042 -0.4203
vn 0.0000 0.8042 -0.5943
vn 0.1154 0.3410 -0.9329
vn 0.1370 0.2431 -0.9603
vn 0.0000 -0.6260 -0.7798
vn 0.1178 -0.5849 -0.8025
vn 0.4297 -0.5393 -0.7241
vn 0.7241 -0.5393 -0.4297
vn 0.8025 -0.5849 -0.1178
vn 0.7798 -0.6260 0.0000
vn 0.0000 -1.0000 0.0000
vn -0.1154 0.3410 0.9329
vn -0.1370 0.2431 0.9603
vn -0.9763 0.2161 0.0000
vn -0.9408 0.3390 0.0000
vn -0.9329 0.3410 -0.1154
vn -0.9603 0.2431 -0.1370
vn -0.1276 0.9918 0.0000
vn -0.1372 0.9905 0.0000
vn 0.1506 0.9886 0.0000
vn 0.1065 0.9886 -0.1065
vn 0.4203 0.8042 -0.4203
vn 0.5943 0.8042 0.0000
vn -0.1506 0.9886 0.0000
vn -0.1065 0.9886 0.1065
vn -0.4203 0.8042 0.4203
vn -0.5943 0.8042 0.0000
vn 0.1102 0.9878 -0.1102
vn 0.0970 0.9905 -0.0970
vn -0.9603 0.2431 0.1370
vn -0.9329 0.3410 0.1154
vn 0.8025 -0.5849 0.1178
vn 0.7241 -0.5393 0.4297
vn 0.4297 -0.5393 0.7241
vn 0.1178 -0.5849 0.8025
vn 0.0000 -0.6260 0.7798
vn -0.8025 -0.5849 -0.1178
vn -0.7241 -0.5393 -0.4297
vn -0.4297 -0.5393 -0.7241
vn -0.1178 -0.5849 -0.8025
vn -0.7798 -0.6260 0.0000
vn -0.1102 0.9878 -0.1102
vn -0.0970 0.9905 -0.0970
vn 0.0000 0.9918 -0.1276
vn 0.0000 0.9905 -0.1372
vn -0.6897 0.2204 -0.6897
vn -0.9754 0.2204 0.0000
vn -0.9970 0.0767 0.0000
vn -0.7050 0.0767 -0.7050
vn -0.6897 0.2204 0.6897
vn -0.7050 0.0767 0.7050
vn 0.6897 0.2204 0.6897
vn 0.9754 0.2204 0.0000
vn 0.9970 0.0767 0.0000
vn 0.7050 0.0767 0.7050
vn 0.6897 0.2204 -0.6897
vn 0.0000 0.2204 -0.9754
vn 0.0000 0.0767 -0.9970
vn 0.7050 0.0767 -0.7050
vn 0.0000 0.2204 0.9754
vn 0.0000 0.0767 0.9970
vn 0.7851 0.6193 0.0000
vn 0.5552 0.6193 -0.5552
vn 0.5450 0.6371 -0.5450
vn 0.7708 0.6371 0.0000
vn -0.5552 0.6193 -0.5552
vn -0.7851 0.6193 0.0000
vn -0.7708 0.6371 0.0000
vn -0.5450 0.6371 -0.5450
vn 0.0000 0.6193 -0.7851
vn 0.0000 0.6371 -0.7708
vn 0.0000 0.6193 0.7851
vn 0.5552 0.6193 0.5552
vn 0.5450 0.6371 0.5450
vn 0.0000 0.6371 0.7708
vn -0.5552 0.6193 0.5552
vn -0.5450 0.6371 0.5450
vn 0.7071 0.0000 0.7071
vn 1.0000 0.0000 0.0000
vn 0.9907 0.1361 0.0000
vn 0.7005 0.1361 0.7005
vn 0.7071 0.0000 -0.7071
vn 0.0000 0.0000 -1.0000
vn 0.0000 0.1361 -0.9907
vn 0.7005 0.1361 -0.7005
vn -1.0000 0.0000 0.0000
vn -0.7071 0.0000 0.7071
vn -0.7005 0.1361 0.7005
vn -0.9907 0.1361 0.0000
vn -0.7071 0.0000 -0.7071
vn -0.7005 0.1361 -0.7005
vn 0.0000 0.0000 1.0000
vn 0.0000 0.1361 0.9907
vn 0.0000 -0.5589 -0.8292
vn -0.5863 -0.5589 -0.5863
vn -0.6800 -0.2741 -0.6800
vn 0.0000 -0.2741 -0.9617
vn 0.0000 -0.5589 0.8292
vn 0.5863 -0.5589 0.5863
vn 0.6800 -0.2741 0.6800
vn 0.0000 -0.2741 0.9617
vn 0.9980 -0.0631 0.0000
vn 0.7057 -0.0631 0.7057
vn 0.0000 -0.0631 -0.9980
vn 0.7057 -0.0631 -0.7057
vn -0.8292 -0.5589 0.0000
vn -0.5863 -0.5589 0.5863
vn -0.6800 -0.2741 0.6800
vn -0.9617 -0.2741 0.0000
vn 0.8292 -0.5589 0.0000
vn 0.5863 -0.5589 -0.5863
vn 0.6800 -0.2741 -0.6800
vn 0.9617 -0.2741 0.0000
vn -0.9980 -0.0631 0.0000
vn -0.7057 -0.0631 -0.7057
vn 0.0000 -0.0631 0.9980
vn -0.7057 -0.0631 0.7057
vn 0.0000 0.1803 0.9836
vn -0.6955 0.1803 0.6955
vn 0.0000 0.1803 -0.9836
vn 0.6955 0.1803 -0.6955
vn -0.6955 0.1803 -0.6955
vn -0.9836 0.1803 0.0000
vn 0.9836 0.1803 0.0000
vn 0.6955 0.1803 0.6955
vn 0.0000 0.3698 0.9291
vn 0.6570 0.3698 0.6570
vn 0.4546 0.7659 0.4546
vn 0.0000 0.7659 0.6429
vn 0.9291 0.3698 0.0000
vn 0.6570 0.3698 -0.6570
vn 0.4546 0.7659 -0.4546
vn 0.6429 0.7659 0.0000
vn -0.6570 0.3698 0.6570
vn -0.4546 0.7659 0.4546
vn 0.0000 0.3698 -0.9291
vn 0.0000 0.7659 -0.6429
vn -0.6570 0.3698 -0.6570
vn -0.4546 0.7659 -0.4546
vn -0.9291 0.3698 0.0000
vn -0.6429 0.7659 0.0000
vn 0.0000 1.0000 0.0000
vn -0.9161 -0.3816 0.1227
vn -0.9161 -0.3816 -0.1227
vn -0.6825 -0.7255 0.0885
vn -0.6825 -0.7255 -0.0885
vn 0.1235 -0.3869 0.9138
vn -0.1227 -0.3816 0.9161
vn 0.0885 -0.7255 0.6825
vn -0.0885 -0.7255 0.6825
vn 0.6825 -0.7255 0.0885
vn 0.6825 -0.7255 -0.0885
vn 0.7625 -0.6385 -0.1040
vn 0.7625 -0.6385 0.1040
vn 0.0885 -0.7255 -0.6825
vn -0.0885 -0.7255 -0.6825
vn -0.1040 -0.6385 -0.7625
vn 0.1040 -0.6385 -0.7625
vn 0.8431 0.5238 -0.1218
vn 0.8431 0.5238 0.1218
vn 0.9161 -0.3816 -0.1227
vn 0.9161 -0.3816 0.1227
vn -0.1227 -0.3816 -0.9161
vn 0.1235 -0.3869 -0.9138
vn -0.7625 -0.6385 0.1040
vn -0.7625 -0.6385 -0.1040
vn -0.8431 0.5238 -0.1218
vn -0.8431 0.5238 0.1218
vn -0.4245 0.9039 0.0514
vn -0.4245 0.9039 -0.0514
vn -0.1218 0.5238 -0.8431
vn 0.1218 0.5238 -0.8431
vn -0.1218 0.5238 0.8431
vn 0.1218 0.5238 0.8431
vn 0.0514 0.9039 0.4245
vn -0.0514 0.9039 0.4245
vn -0.1305 0.0000 0.9914
vn 0.1305 0.0000 0.9914
vn 0.0958 0.6789 0.7280
vn -0.0958 0.6789 0.7280
vn -0.0514 0.9039 -0.4245
vn 0.0514 0.9039 -0.4245
vn 0.0940 0.5474 0.8316
vn -0.0940 0.5474 0.8316
vn 0.4245 0.9039 -0.0514
vn 0.4245 0.9039 0.0514
vn -0.9914 0.0000 -0.1305
vn -0.9914 0.0000 0.1305
vn -0.7280 0.6789 0.0958
vn -0.7280 0.6789 -0.0958
vn 0.8316 0.5474 -0.0940
vn 0.8316 0.5474 0.0940
vn -0.8316 0.5474 0.0940
vn -0.8316 0.5474 -0.0940
vn -0.0940 0.5474 -0.8316
vn 0.0940 0.5474 -0.8316
vn 0.1305 0.0000 -0.9914
vn -0.1305 0.0000 -0.9914
vn -0.0958 0.6789 -0.7280
vn 0.0958 0.6789 -0.7280
vn -0.6557 0.6532 0.3786
vn -0.3786 0.6532 0.6557
vn 0.3786 0.6532 0.6557
vn 0.6557 0.6532 0.3786
vn 0.7280 0.6789 0.0958
vn 0.7280 0.6789 -0.0958
vn 0.6557 0.6532 -0.3786
vn 0.3786 0.6532 -0.6557
vn -0.3786 0.6532 -0.6557
vn -0.6557 0.6532 -0.3786
vn 0.9914 0.0000 0.1305
vn 0.9914 0.0000 -0.1305
vn -0.8146 0.3592 0.4554
vn -0.7095 0.6022 0.3659
vn -0.7786 0.6236 0.0702
vn -0.4554 0.3592 0.8146
vn -0.3659 0.6022 0.7095
vn -0.0702 0.6236 0.7786
vn -0.0743 0.9029 0.4233
vn -0.3513 0.8678 0.3513
vn -0.4233 0.9029 0.0743
vn -0.0743 0.9029 -0.4233
vn -0.3513 0.8678 -0.3513
vn -0.4233 0.9029 -0.0743
vn -0.0702 0.6236 -0.7786
vn -0.3659 0.6022 -0.7095
vn -0.4554 0.3592 -0.8146
vn -0.8146 0.3592 -0.4554
vn -0.7095 0.6022 -0.3659
vn -0.7786 0.6236 -0.0702
vn 0.0743 0.9029 0.4233
vn 0.3513 0.8678 0.3513
vn 0.4233 0.9029 0.0743
vn 0.0702 0.6236 0.7786
vn 0.3659 0.6022 0.7095
vn 0.4554 0.3592 0.8146
vn 0.8146 0.3592 0.4554
vn 0.7095 0.6022 0.3659
vn 0.7786 0.6236 0.0702
vn 0.4233 0.9029 -0.0743
vn 0.3513 0.8678 -0.3513
vn 0.0743 0.9029 -0.4233
vn 0.7786 0.6236 -0.0702
vn 0.7095 0.6022 -0.3659
vn 0.8146 0.3592 -0.4554
vn 0.4554 0.3592 -0.8146
vn 0.3659 0.6022 -0.7095
vn 0.0702 0.6236 -0.7786
vn -0.4870 0.2907 0.8236
vn -0.8236 0.2907 0.4870
vn -0.4494 0.8933 0.0000
vn -0.7749 0.6320 0.0000
vn -0.1262 0.2411 -0.9622
vn -0.4775 0.2899 -0.8294
vn -0.8294 0.2899 -0.4775
vn -0.9622 0.2411 -0.1262
vn 0.0000 0.8933 -0.4494
vn 0.0000 0.6320 -0.7749
vn 0.9622 0.2411 -0.1262
vn 0.8294 0.2899 -0.4775
vn 0.4775 0.2899 -0.8294
vn 0.1262 0.2411 -0.9622
vn 0.4494 0.8933 0.0000
vn 0.7749 0.6320 0.0000
vn 0.1262 0.2411 0.9622
vn 0.4775 0.2899 0.8294
vn 0.8294 0.2899 0.4775
vn 0.9622 0.2411 0.1262
vn 0.0000 0.8933 0.4494
vn 0.0000 0.6320 0.7749
vn -0.1178 -0.5849 0.8025
vn -0.4297 -0.5393 0.7241
vn -0.7241 -0.5393 0.4297
vn -0.8025 -0.5849 0.1178
vn -0.4456 0.7764 -0.4456
vn -0.6302 0.7764 0.0000
vn 0.4456 0.7764 -0.4456
vn 0.0000 0.7764 -0.6302
vn 0.4456 0.7764 0.4456
vn 0.6302 0.7764 0.0000
vn -0.4456 0.7764 0.4456
vn 0.0000 0.7764 0.6302
vn 0.6265 0.4635 0.6265
vn 0.8861 0.4635 0.0000
vn 0.6828 0.2599 0.6828
vn 0.9656 0.2599 0.0000
vn 0.6265 0.4635 -0.6265
vn 0.0000 0.4635 -0.8861
vn 0.6828 0.2599 -0.6828
vn 0.0000 0.2599 -0.9656
vn -0.6265 0.4635 -0.6265
vn -0.8861 0.4635 0.0000
vn -0.6828 0.2599 -0.6828
vn -0.9656 0.2599 0.0000
vn -0.6265 0.4635 0.6265
vn 0.0000 0.4635 0.8861
vn -0.6828 0.2599 0.6828
vn 0.0000 0.2599 0.9656
vn 0.9968 0.0797 0.0000
vn 0.7049 0.0797 0.7049
vn 0.6800 0.2741 0.6800
vn 0.9617 0.2741 0.0000
vn 0.6179 0.4861 0.6179
vn 0.8739 0.4861 0.0000
vn 0.0000 0.0797 -0.9968
vn 0.7049 0.0797 -0.7049
vn 0.6800 0.2741 -0.6800
vn 0.0000 0.2741 -0.9617
vn 0.6179 0.4861 -0.6179
vn 0.0000 0.4861 -0.8739
vn -0.9968 0.0797 0.0000
vn -0.7049 0.0797 -0.7049
vn -0.6800 0.2741 -0.6800
vn -0.9617 0.2741 0.0000
vn -0.6179 0.4861 -0.6179
vn -0.8739 0.4861 0.0000
vn 0.0000 0.0797 0.9968
vn -0.7049 0.0797 0.7049
vn -0.6800 0.2741 0.6800
vn 0.0000 0.2741 0.9617
vn -0.6179 0.4861 0.6179
vn 0.0000 0.4861 0.8739
vn 0.3674 0.8544 0.3674
vn 0.5195 0.8544 0.0000
vn 0.6130 0.4983 0.6130
vn 0.8669 0.4983 0.0000
vn 0.3674 0.8544 -0.3674
vn 0.0000 0.8544 -0.5195
vn 0.6130 0.4983 -0.6130
vn 0.0000 0.4983 -0.8669
vn -0.3674 0.8544 -0.3674
vn -0.5195 0.8544 0.0000
vn -0.6130 0.4983 -0.6130
vn -0.8669 0.4983 0.0000
vn -0.3674 0.8544 0.3674
vn 0.0000 0.8544 0.5195
vn -0.6130 0.4983 0.6130
vn 0.0000 0.4983 0.8669
vn 0.8572 -0.5149 0.0000
vn 0.6062 -0.5149 0.6062
vn 0.6526 -0.3848 0.6526
vn 0.9230 -0.3848 0.0000
vn 0.6905 -0.2152 0.6905
vn 0.9766 -0.2152 0.0000
vn 0.0000 -0.5149 -0.8572
vn 0.6062 -0.5149 -0.6062
vn 0.6526 -0.3848 -0.6526
vn 0.0000 -0.3848 -0.9230
vn 0.6905 -0.2152 -0.6905
vn 0.0000 -0.2152 -0.9766
vn -0.8572 -0.5149 0.0000
vn -0.6062 -0.5149 -0.6062
vn -0.6526 -0.3848 -0.6526
vn -0.9230 -0.3848 0.0000
vn -0.6905 -0.2152 -0.6905
vn -0.9766 -0.2152 0.0000
vn 0.0000 -0.5149 0.8572
vn -0.6062 -0.5149 0.6062
vn -0.6526 -0.3848 0.6526
vn 0.0000 -0.3848 0.9230
vn -0.6905 -0.2152 0.6905
vn 0.0000 -0.2152 0.9766
vn 0.8276 0.2901 0.4805
vn 0.9615 0.2419 0.1303
vn 0.4805 0.2901 0.8276
vn 0.1303 0.2419 0.9615
vn 0.4805 0.2901 -0.8276
vn 0.1303 0.2419 -0.9615
vn 0.8276 0.2901 -0.4805
vn 0.9615 0.2419 -0.1303
vn -0.8276 0.2901 -0.4805
vn -0.9615 0.2419 -0.1303
vn -0.4805 0.2901 -0.8276
vn -0.1303 0.2419 -0.9615
vn -0.8294 0.2899 0.4775
vn -0.9622 0.2411 0.1262
vn -0.4775 0.2899 0.8294
vn -0.1262 0.2411 0.9622
vn -0.4870 0.2907 -0.8236
vn -0.8236 0.2907 -0.4870
vn 0.8236 0.2907 -0.4870
vn 0.4870 0.2907 -0.8236
vn 0.4870 0.2907 0.8236
vn 0.8236 0.2907 0.4870
vn -0.8276 0.2901 0.4805
vn -0.9615 0.2419 0.1303
vn -0.4805 0.2901 0.8276
vn -0.1303 0.2419 0.9615
vn -0.1040 -0.6385 0.7625
vn 0.1040 -0.6385 0.7625
vn -0.9728 0.1501 0.1763
vn 0.2290 0.9446 0.2349
vn 0.3316 -0.8802 0.3393
vn -0.1266 -0.9838 0.1266
vn -0.1266 -0.9838 -0.1266
vn 0.1266 -0.9838 -0.1266
vn 0.1266 -0.9838 0.1266
vn -0.1763 0.1501 -0.9728
vn 0.4997 -0.1987 -0.8431
vn 0.4606 -0.4734 -0.7508
vn 0.1400 -0.5219 -0.8414
vn 0.8430 -0.1987 -0.4997
vn 0.7508 -0.4734 -0.4606
vn 0.9728 0.1501 0.1763
vn 0.8414 -0.5220 -0.1400
vn 0.4724 -0.8723 -0.1259
vn 0.4380 -0.7850 -0.4380
vn 0.1259 -0.8723 -0.4724
vn 0.1770 0.1568 -0.9716
vn -0.1400 -0.5219 -0.8414
vn -0.4606 -0.4734 -0.7508
vn -0.4997 -0.1987 -0.8431
vn -0.1259 -0.8723 -0.4724
vn -0.4380 -0.7850 -0.4380
vn -0.4724 -0.8723 -0.1259
vn -0.8414 -0.5220 -0.1400
vn -0.7508 -0.4734 -0.4606
vn -0.8431 -0.1987 -0.4997
vn 0.9728 0.1501 -0.1763
vn 0.8431 -0.1987 0.4997
vn 0.7508 -0.4734 0.4606
vn 0.8414 -0.5220 0.1400
vn 0.4997 -0.1987 0.8431
vn 0.4606 -0.4734 0.7508
vn -0.1763 0.1501 0.9728
vn 0.1400 -0.5219 0.8414
vn 0.1259 -0.8723 0.4724
vn 0.4380 -0.7850 0.4380
vn 0.4724 -0.8723 0.1259
vn 0.1770 0.1568 0.9716
vn -0.4997 -0.1987 0.8431
vn -0.4606 -0.4734 0.7508
vn -0.1400 -0.5219 0.8414
vn -0.8430 -0.1987 0.4997
vn -0.7508 -0.4734 0.4606
vn -0.9728 0.1501 -0.1763
vn -0.8414 -0.5220 0.1400
vn -0.4724 -0.8723 0.1259
vn -0.4380 -0.7850 0.4380
vn -0.1259 -0.8723 0.4724
vn 0.3178 -0.7705 -0.5525
vn 0.5014 -0.1245 -0.8562
vn 0.5525 -0.7705 -0.3178
vn 0.8562 -0.1245 -0.5014
vn -0.3178 -0.7705 0.5525
vn -0.5014 -0.1245 0.8562
vn -0.5525 -0.7705 0.3178
vn -0.8562 -0.1245 0.5014
vn -0.6778 -0.6208 -0.3938
vn -0.5525 -0.7705 -0.3178
vn -0.3938 -0.6208 -0.6778
vn -0.3178 -0.7705 -0.5525
vn 0.6778 -0.6208 -0.3937
vn 0.3938 -0.6208 -0.6778
vn 0.6778 -0.6208 0.3938
vn 0.5525 -0.7705 0.3178
vn 0.3938 -0.6208 0.6778
vn 0.3178 -0.7705 0.5525
vn -0.6778 -0.6208 0.3937
vn -0.3938 -0.6208 0.6778
vn 0.7319 0.5285 0.4302
vn 0.4302 0.5285 0.7319
vn -0.7319 0.5285 0.4302
vn -0.4302 0.5285 0.7319
vn 0.4302 0.5285 -0.7319
vn 0.7319 0.5285 -0.4302
vn -0.4302 0.5285 -0.7319
vn -0.7319 0.5285 -0.4302
vn 0.1753 0.9326 -0.3153
vn 0.3153 0.9326 -0.1753
vn 0.1753 0.9326 0.3153
vn 0.3153 0.9326 0.1753
vn -0.1753 0.9326 0.3153
vn -0.3153 0.9326 0.1753
vn -0.1753 0.9326 -0.3153
vn -0.3153 0.9326 -0.1753
vn -0.6926 0.6097 -0.3854
vn -0.3854 0.6097 -0.6926
vn 0.6926 0.6097 -0.3854
vn 0.3854 0.6097 -0.6926
vn 0.6926 0.6097 0.3854
vn 0.3854 0.6097 0.6926
vn -0.6926 0.6097 0.3854
vn -0.3854 0.6097 0.6926
vn 0.5000 0.0000 -0.8660
vn 0.8660 0.0000 -0.5000
vn 0.5000 0.0000 0.8660
vn 0.8660 0.0000 0.5000
vn -0.5000 0.0000 0.8660
vn -0.8660 0.0000 0.5000
vn -0.5000 0.0000 -0.8660
vn -0.8660 0.0000 -0.5000
vn 0.5014 -0.1245 0.8562
vn 0.8562 -0.1245 0.5014
vn -0.5014 -0.1245 -0.8562
vn -0.8562 -0.1245 -0.5014
vn 0.2290 0.9446 -0.2349
vn 0.3316 -0.8802 -0.3393
vn -0.2283 0.9464 -0.2283
vn -0.3315 -0.8833 -0.3315
vn -0.2283 0.9464 0.2283
vn -0.3315 -0.8833 0.3315
vn 0.2268 0.9471 0.2269
vn -0.2268 0.9471 0.2269
vn 0.7047 0.0774 -0.7052
vn -0.7047 0.0774 -0.7052
vn -0.6893 0.2235 -0.6891
vn 0.6893 0.2235 -0.6891
vn -0.2268 0.9471 -0.2269
vn 0.2268 0.9471 -0.2269
vn -0.7047 0.0774 0.7052
vn 0.7047 0.0774 0.7052
vn 0.6893 0.2235 0.6891
vn -0.6893 0.2235 0.6891
vn 0.0000 0.7041 -0.7101
vn 0.0000 0.8286 -0.5598
vn 0.1092 0.8286 -0.5490
vn 0.1385 0.7040 -0.6965
vn 0.0000 -0.7040 -0.7101
vn 0.0000 -0.5528 -0.8333
vn 0.1626 -0.5528 -0.8173
vn 0.1385 -0.7040 -0.6965
vn 0.0000 0.5528 -0.8333
vn 0.1626 0.5528 -0.8173
vn 0.0000 -0.8286 -0.5598
vn 0.1092 -0.8286 -0.5490
vn 0.0000 0.3805 -0.9247
vn 0.1804 0.3805 -0.9070
vn 0.0000 -0.9217 -0.3879
vn 0.0757 -0.9217 -0.3804
vn 0.0000 0.1939 -0.9810
vn 0.1914 0.1939 -0.9622
vn 0.0000 -0.9796 -0.2010
vn 0.0392 -0.9796 -0.1971
vn 0.1951 0.0000 -0.9808
vn 0.0000 0.9796 -0.2010
vn 0.0392 0.9796 -0.1971
vn 0.0000 -0.1939 -0.9810
vn 0.1914 -0.1939 -0.9622
vn 0.0000 0.9217 -0.3879
vn 0.0757 0.9217 -0.3804
vn 0.0000 -0.3805 -0.9247
vn 0.1804 -0.3805 -0.9070
vn 0.1484 0.9217 -0.3583
vn 0.2142 0.8286 -0.5171
vn 0.3539 -0.3805 -0.8544
vn 0.3189 -0.5528 -0.7699
vn 0.2717 0.7041 -0.6561
vn 0.2717 -0.7040 -0.6561
vn 0.3189 0.5528 -0.7699
vn 0.2142 -0.8286 -0.5171
vn 0.3539 0.3805 -0.8544
vn 0.1484 -0.9217 -0.3583
vn 0.3754 0.1939 -0.9063
vn 0.0769 -0.9796 -0.1856
vn 0.3827 0.0000 -0.9239
vn 0.0769 0.9796 -0.1857
vn 0.3754 -0.1939 -0.9063
vn 0.5137 0.3805 -0.7689
vn 0.5450 0.1939 -0.8157
vn 0.2155 -0.9217 -0.3225
vn 0.1116 -0.9796 -0.1671
vn 0.5556 0.0000 -0.8314
vn 0.1116 0.9796 -0.1671
vn 0.5450 -0.1939 -0.8157
vn 0.2155 0.9217 -0.3225
vn 0.5137 -0.3805 -0.7689
vn 0.3110 0.8286 -0.4654
vn 0.4630 -0.5528 -0.6929
vn 0.3945 0.7041 -0.5904
vn 0.3945 -0.7040 -0.5904
vn 0.4630 0.5528 -0.6929
vn 0.3110 -0.8286 -0.4654
vn 0.6539 -0.3805 -0.6539
vn 0.5893 -0.5528 -0.5893
vn 0.3958 0.8286 -0.3958
vn 0.5021 0.7041 -0.5021
vn 0.5021 -0.7040 -0.5021
vn 0.5893 0.5528 -0.5893
vn 0.3958 -0.8286 -0.3958
vn 0.6539 0.3805 -0.6539
vn 0.2743 -0.9217 -0.2743
vn 0.6937 0.1939 -0.6937
vn 0.1421 -0.9796 -0.1421
vn 0.1421 0.9796 -0.1421
vn 0.6937 -0.1939 -0.6937
vn 0.2743 0.9217 -0.2743
vn 0.3225 -0.9217 -0.2155
vn 0.1671 -0.9796 -0.1116
vn 0.8157 0.1939 -0.5450
vn 0.8314 0.0000 -0.5556
vn 0.1671 0.9796 -0.1116
vn 0.8157 -0.1939 -0.5450
vn 0.3225 0.9217 -0.2155
vn 0.7689 -0.3805 -0.5137
vn 0.4654 0.8286 -0.3110
vn 0.6929 -0.5528 -0.4630
vn 0.5904 0.7041 -0.3945
vn 0.5904 -0.7040 -0.3945
vn 0.6929 0.5528 -0.4630
vn 0.4654 -0.8286 -0.3110
vn 0.7689 0.3805 -0.5137
vn 0.5171 0.8286 -0.2142
vn 0.6561 0.7041 -0.2717
vn 0.7699 -0.5528 -0.3189
vn 0.6561 -0.7040 -0.2717
vn 0.7699 0.5528 -0.3189
vn 0.5171 -0.8286 -0.2142
vn 0.8544 0.3805 -0.3539
vn 0.3583 -0.9217 -0.1484
vn 0.9063 0.1939 -0.3754
vn 0.1856 -0.9796 -0.0769
vn 0.9239 0.0000 -0.3827
vn 0.1857 0.9796 -0.0769
vn 0.9063 -0.1939 -0.3754
vn 0.3583 0.9217 -0.1484
vn 0.8544 -0.3805 -0.3539
vn 0.9622 0.1939 -0.1914
vn 0.9808 0.0000 -0.1951
vn 0.1971 0.9796 -0.0392
vn 0.1971 -0.9796 -0.0392
vn 0.9622 -0.1939 -0.1914
vn 0.3804 0.9217 -0.0757
vn 0.9070 -0.3805 -0.1804
vn 0.5490 0.8286 -0.1092
vn 0.8173 -0.5528 -0.1626
vn 0.6965 0.7041 -0.1385
vn 0.6965 -0.7040 -0.1385
vn 0.8173 0.5528 -0.1626
vn 0.5490 -0.8286 -0.1092
vn 0.9070 0.3805 -0.1804
vn 0.3804 -0.9217 -0.0757
vn 0.8333 -0.5528 0.0000
vn 0.7101 -0.7040 0.0000
vn 0.7101 0.7041 0.0000
vn 0.8333 0.5528 0.0000
vn 0.5598 -0.8286 0.0000
vn 0.9247 0.3805 0.0000
vn 0.3879 -0.9217 0.0000
vn 0.9810 0.1939 0.0000
vn 0.2010 -0.9796 0.0000
vn 0.2010 0.9796 0.0000
vn 0.9810 -0.1939 0.0000
vn 0.3879 0.9217 0.0000
vn 0.9247 -0.3805 0.0000
vn 0.5598 0.8286 0.0000
vn 0.1971 -0.9796 0.0392
vn 0.9808 0.0000 0.1951
vn 0.9622 -0.1939 0.1914
vn 0.1971 0.9796 0.0392
vn 0.3804 0.9217 0.0757
vn 0.9070 -0.3805 0.1804
vn 0.5490 0.8286 0.1092
vn 0.8173 -0.5528 0.1626
vn 0.6965 0.7041 0.1385
vn 0.6965 -0.7040 0.1385
vn 0.8173 0.5528 0.1626
vn 0.5490 -0.8286 0.1092
vn 0.9070 0.3805 0.1804
vn 0.3804 -0.9217 0.0757
vn 0.9622 0.1939 0.1914
vn 0.6561 -0.7040 0.2717
vn 0.5171 -0.8286 0.2142
vn 0.7699 0.5528 0.3189
vn 0.8544 0.3805 0.3539
vn 0.3583 -0.9217 0.1484
vn 0.9063 0.1939 0.3754
vn 0.1856 -0.9796 0.0769
vn 0.9239 0.0000 0.3827
vn 0.1857 0.9796 0.0769
vn 0.9063 -0.1939 0.3754
vn 0.3583 0.9217 0.1484
vn 0.8544 -0.3805 0.3539
vn 0.5171 0.8286 0.2142
vn 0.7699 -0.5528 0.3189
vn 0.6561 0.7041 0.2717
vn 0.1671 0.9796 0.1116
vn 0.3225 0.9217 0.2155
vn 0.8157 -0.1939 0.5450
vn 0.7689 -0.3805 0.5137
vn 0.4654 0.8286 0.3110
vn 0.6929 -0.5528 0.4630
vn 0.5904 0.7041 0.3945
vn 0.5904 -0.7040 0.3945
vn 0.6929 0.5528 0.4630
vn 0.4654 -0.8286 0.3110
vn 0.7689 0.3805 0.5137
vn 0.3225 -0.9217 0.2155
vn 0.8157 0.1939 0.5450
vn 0.1671 -0.9796 0.1116
vn 0.8314 0.0000 0.5556
vn 0.5893 0.5528 0.5893
vn 0.6539 0.3805 0.6539
vn 0.3958 -0.8286 0.3958
vn 0.2743 -0.9217 0.2743
vn 0.6937 0.1939 0.6937
vn 0.1421 -0.9796 0.1421
vn 0.1421 0.9796 0.1421
vn 0.6937 -0.1939 0.6937
vn 0.2743 0.9217 0.2743
vn 0.6539 -0.3805 0.6539
vn 0.3958 0.8286 0.3958
vn 0.5893 -0.5528 0.5893
vn 0.5021 0.7041 0.5021
vn 0.5021 -0.7040 0.5021
vn 0.5450 -0.1939 0.8157
vn 0.5137 -0.3805 0.7689
vn 0.2155 0.9217 0.3225
vn 0.3110 0.8286 0.4654
vn 0.4630 -0.5528 0.6929
vn 0.3945 0.7041 0.5904
vn 0.3945 -0.7040 0.5904
vn 0.4630 0.5528 0.6929
vn 0.3110 -0.8286 0.4654
vn 0.5137 0.3805 0.7689
vn 0.2155 -0.9217 0.3225
vn 0.5450 0.1939 0.8157
vn 0.1116 -0.9796 0.1671
vn 0.5556 0.0000 0.8314
vn 0.1116 0.9796 0.1671
vn 0.2142 -0.8286 0.5171
vn 0.1484 -0.9217 0.3583
vn 0.3539 0.3805 0.8544
vn 0.3754 0.1939 0.9063
vn 0.0769 -0.9796 0.1856
vn 0.3827 0.0000 0.9239
vn 0.0769 0.9796 0.1857
vn 0.3754 -0.1939 0.9063
vn 0.1484 0.9217 0.3583
vn 0.3539 -0.3805 0.8544
vn 0.2142 0.8286 0.5171
vn 0.3189 -0.5528 0.7699
vn 0.2717 0.7040 0.6561
vn 0.2717 -0.7040 0.6561
vn 0.3189 0.5528 0.7699
vn 0.0757 0.9217 0.3804
vn 0.1092 0.8286 0.5490
vn 0.1804 -0.3805 0.9070
vn 0.1626 -0.5528 0.8173
vn 0.1385 0.7040 0.6965
vn 0.1385 -0.7040 0.6965
vn 0.1626 0.5528 0.8173
vn 0.1092 -0.8286 0.5490
vn 0.1804 0.3805 0.9070
vn 0.0757 -0.9217 0.3804
vn 0.1914 0.1939 0.9622
vn 0.0392 -0.9796 0.1971
vn 0.1951 0.0000 0.9808
vn 0.0392 0.9796 0.1971
vn 0.1914 -0.1939 0.9622
vn 0.0000 -0.7040 0.7101
vn 0.0000 -0.8286 0.5598
vn 0.0000 0.5528 0.8333
vn 0.0000 0.3805 0.9247
vn 0.0000 -0.9217 0.3879
vn 0.0000 0.1939 0.9810
vn 0.0000 -0.9796 0.2010
vn 0.0000 0.9796 0.2010
vn 0.0000 -0.1939 0.9810
vn 0.0000 0.9217 0.3879
vn 0.0000 -0.3805 0.9247
vn 0.0000 0.8286 0.5598
vn 0.0000 -0.5528 0.8333
vn 0.0000 0.7040 0.7101
vn -0.1914 -0.1939 0.9622
vn -0.1804 -0.3805 0.9070
vn -0.0757 0.9217 0.3804
vn -0.1092 0.8286 0.5490
vn -0.1626 -0.5528 0.8173
vn -0.1385 0.7040 0.6965
vn -0.1385 -0.7040 0.6965
vn -0.1626 0.5528 0.8173
vn -0.1092 -0.8286 0.5490
vn -0.1804 0.3805 0.9070
vn -0.0757 -0.9217 0.3804
vn -0.1914 0.1939 0.9622
vn -0.0392 -0.9796 0.1971
vn -0.1951 0.0000 0.9808
vn -0.0392 0.9796 0.1971
vn -0.2142 -0.8286 0.5171
vn -0.1484 -0.9217 0.3583
vn -0.3539 0.3805 0.8544
vn -0.3754 0.1939 0.9063
vn -0.0769 -0.9796 0.1856
vn -0.3827 0.0000 0.9239
vn -0.0769 0.9796 0.1857
vn -0.3754 -0.1939 0.9063
vn -0.1484 0.9217 0.3583
vn -0.3539 -0.3805 0.8544
vn -0.2142 0.8286 0.5171
vn -0.3189 -0.5528 0.7699
vn -0.2717 0.7041 0.6561
vn -0.2717 -0.7040 0.6561
vn -0.3189 0.5528 0.7699
vn -0.2155 0.9217 0.3225
vn -0.3110 0.8286 0.4654
vn -0.5137 -0.3805 0.7689
vn -0.4630 -0.5528 0.6929
vn -0.3945 0.7041 0.5904
vn -0.3945 -0.7040 0.5904
vn -0.4630 0.5528 0.6929
vn -0.3110 -0.8286 0.4654
vn -0.5137 0.3805 0.7689
vn -0.2155 -0.9217 0.3225
vn -0.5450 0.1939 0.8157
vn -0.1116 -0.9796 0.1671
vn -0.5556 0.0000 0.8314
vn -0.1116 0.9796 0.1671
vn -0.5450 -0.1939 0.8157
vn -0.6539 0.3805 0.6539
vn -0.6937 0.1939 0.6937
vn -0.2743 -0.9217 0.2743
vn -0.1421 -0.9796 0.1421
vn -0.1421 0.9796 0.1421
vn -0.6937 -0.1939 0.6937
vn -0.2743 0.9217 0.2743
vn -0.6539 -0.3805 0.6539
vn -0.3958 0.8286 0.3958
vn -0.5893 -0.5528 0.5893
vn -0.5021 0.7041 0.5021
vn -0.5021 -0.7040 0.5021
vn -0.5893 0.5528 0.5893
vn -0.3958 -0.8286 0.3958
vn -0.7689 -0.3805 0.5137
vn -0.6929 -0.5528 0.4630
vn -0.4654 0.8286 0.3110
vn -0.5904 0.7040 0.3945
vn -0.5904 -0.7040 0.3945
vn -0.6929 0.5528 0.4630
vn -0.4654 -0.8286 0.3110
vn -0.7689 0.3805 0.5137
vn -0.3225 -0.9217 0.2155
vn -0.8157 0.1939 0.5450
vn -0.1671 -0.9796 0.1116
vn -0.8314 0.0000 0.5556
vn -0.1671 0.9796 0.1117
vn -0.8157 -0.1939 0.5450
vn -0.3225 0.9217 0.2155
vn -0.3583 -0.9217 0.1484
vn -0.1856 -0.9796 0.0769
vn -0.9063 0.1939 0.3754
vn -0.9239 0.0000 0.3827
vn -0.1857 0.9796 0.0769
vn -0.9063 -0.1939 0.3754
vn -0.3583 0.9217 0.1484
vn -0.8544 -0.3805 0.3539
vn -0.5171 0.8286 0.2142
vn -0.7699 -0.5528 0.3189
vn -0.6561 0.7040 0.2717
vn -0.6561 -0.7040 0.2717
vn -0.7699 0.5528 0.3189
vn -0.5171 -0.8286 0.2142
vn -0.8544 0.3805 0.3539
vn -0.5490 0.8286 0.1092
vn -0.6965 0.7041 0.1385
vn -0.8173 -0.5528 0.1626
vn -0.6965 -0.7040 0.1385
vn -0.8173 0.5528 0.1626
vn -0.5490 -0.8286 0.1092
vn -0.9070 0.3805 0.1804
vn -0.3804 -0.9217 0.0757
vn -0.9622 0.1939 0.1914
vn -0.1971 -0.9796 0.0392
vn -0.9808 0.0000 0.1951
vn -0.1971 0.9796 0.0392
vn -0.9622 -0.1939 0.1914
vn -0.3804 0.9217 0.0757
vn -0.9070 -0.3805 0.1804
vn -0.9810 0.1939 0.0000
vn -0.2010 0.9796 0.0000
vn -0.2010 -0.9796 0.0000
vn -0.9810 -0.1939 0.0000
vn -0.3879 0.9217 0.0000
vn -0.9247 -0.3805 0.0000
vn -0.5598 0.8286 0.0000
vn -0.8333 -0.5528 0.0000
vn -0.7101 0.7041 0.0000
vn -0.7101 -0.7040 0.0000
vn -0.8333 0.5528 0.0000
vn -0.5598 -0.8286 0.0000
vn -0.9247 0.3805 0.0000
vn -0.3879 -0.9217 0.0000
vn -0.8173 -0.5528 -0.1626
vn -0.6965 -0.7040 -0.1385
vn -0.6965 0.7041 -0.1385
vn -0.8173 0.5528 -0.1626
vn -0.5490 -0.8286 -0.1092
vn -0.9070 0.3805 -0.1804
vn -0.3804 -0.9217 -0.0757
vn -0.9622 0.1939 -0.1914
vn -0.1971 -0.9796 -0.0392
vn -0.9808 0.0000 -0.1951
vn -0.1971 0.9796 -0.0392
vn -0.9622 -0.1939 -0.1914
vn -0.3804 0.9217 -0.0756
vn -0.9070 -0.3805 -0.1804
vn -0.5490 0.8286 -0.1092
vn -0.1856 -0.9796 -0.0769
vn -0.9239 0.0000 -0.3827
vn -0.9063 -0.1939 -0.3754
vn -0.1857 0.9796 -0.0769
vn -0.3583 0.9217 -0.1484
vn -0.8544 -0.3805 -0.3539
vn -0.5171 0.8286 -0.2142
vn -0.7699 -0.5528 -0.3189
vn -0.6561 0.7041 -0.2717
vn -0.6561 -0.7040 -0.2717
vn -0.7699 0.5528 -0.3189
vn -0.5171 -0.8286 -0.2142
vn -0.8544 0.3805 -0.3539
vn -0.3583 -0.9217 -0.1484
vn -0.9063 0.1939 -0.3754
vn -0.5904 -0.7040 -0.3945
vn -0.4654 -0.8286 -0.3110
vn -0.6929 0.5528 -0.4630
vn -0.7689 0.3805 -0.5137
vn -0.3225 -0.9217 -0.2155
vn -0.8157 0.1939 -0.5450
vn -0.1671 -0.9796 -0.1116
vn -0.8314 0.0000 -0.5556
vn -0.1671 0.9796 -0.1116
vn -0.8157 -0.1939 -0.5450
vn -0.3225 0.9217 -0.2155
vn -0.7689 -0.3805 -0.5137
vn -0.4654 0.8286 -0.3110
vn -0.6929 -0.5528 -0.4630
vn -0.5904 0.7041 -0.3945
vn -0.1421 0.9796 -0.1421
vn -0.2743 0.9217 -0.2743
vn -0.6937 -0.1939 -0.6937
vn -0.6539 -0.3805 -0.6539
vn -0.3958 0.8286 -0.3958
vn -0.5893 -0.5528 -0.5893
vn -0.5021 0.7041 -0.5021
vn -0.5021 -0.7040 -0.5021
vn -0.5893 0.5528 -0.5893
vn -0.3958 -0.8286 -0.3958
vn -0.6539 0.3805 -0.6539
vn -0.2743 -0.9217 -0.2742
vn -0.6937 0.1939 -0.6937
vn -0.1421 -0.9796 -0.1421
vn -0.4630 0.5528 -0.6929
vn -0.5137 0.3805 -0.7689
vn -0.3110 -0.8286 -0.4654
vn -0.2155 -0.9217 -0.3225
vn -0.5450 0.1939 -0.8157
vn -0.1116 -0.9796 -0.1671
vn -0.5556 0.0000 -0.8314
vn -0.1116 0.9796 -0.1671
vn -0.5450 -0.1939 -0.8157
vn -0.2155 0.9217 -0.3225
vn -0.5137 -0.3805 -0.7689
vn -0.3110 0.8286 -0.4654
vn -0.4630 -0.5528 -0.6929
vn -0.3945 0.7041 -0.5904
vn -0.3945 -0.7040 -0.5904
vn -0.3754 -0.1939 -0.9063
vn -0.3539 -0.3805 -0.8544
vn -0.1484 0.9217 -0.3583
vn -0.2142 0.8286 -0.5171
vn -0.3189 -0.5528 -0.7699
vn -0.2717 0.7041 -0.6561
vn -0.2717 -0.7040 -0.6561
vn -0.3189 0.5528 -0.7699
vn -0.2142 -0.8286 -0.5171
vn -0.3539 0.3805 -0.8544
vn -0.1484 -0.9217 -0.3583
vn -0.3754 0.1939 -0.9063
vn -0.0769 -0.9796 -0.1856
vn -0.3827 0.0000 -0.9239
vn -0.0769 0.9796 -0.1857
vn -0.1092 -0.8286 -0.5490
vn -0.0757 -0.9217 -0.3804
vn -0.1804 0.3805 -0.9070
vn -0.1914 0.1939 -0.9622
vn -0.0392 -0.9796 -0.1971
vn -0.1951 0.0000 -0.9808
vn -0.0392 0.9796 -0.1971
vn -0.1914 -0.1939 -0.9622
vn -0.0757 0.9217 -0.3804
vn -0.1804 -0.3805 -0.9070
vn -0.1092 0.8286 -0.5490
vn -0.1626 -0.5528 -0.8173
vn -0.1385 0.7041 -0.6965
vn -0.1385 -0.7040 -0.6965
vn -0.1626 0.5528 -0.8173
s 1
f 302//1 107//2 77//3 300//4
f 306//5 60//6 111//7 310//8
f 45//9 116//10 140//11 120//12
f 307//13 92//14 107//2 302//1
f 308//15 76//16 115//17 301//18
f 236//19 215//20 8//21 13//22
f 75//23 108//24 134//25 126//26
f 232//27 211//28 7//29 12//30
f 310//8 111//7 93//31 297//32
f 3//33 87//34 89//35 90//36 88//37 2//38 5//39
f 301//18 115//17 44//40 291//41
f 309//42 103//43 61//44 294//45
f 104//46 45//9 120//12 131//47
f 228//48 219//49 9//50 11//51
f 224//52 207//53 6//54 10//55
f 108//24 91//56 129//57 134//25
f 305//58 43//59 103//43 309//42
f 5//39 2//38 71//60 73//61 74//62 72//63 4//64
f 55//65 57//66 58//67 56//68 3//33 5//39 1//69
f 59//70 104//46 131//47 123//71
f 91//56 112//72 137//73 129//57
f 116//10 75//23 126//26 140//11
f 112//72 59//70 123//71 137//73
f 122//74 132//75 159//76 148//77
f 219//49 232//27 12//30 9//50
f 132//75 119//78 144//79 159//76
f 125//80 135//81 163//82 152//83
f 128//84 138//85 167//86 156//87
f 141//88 125//80 152//83 171//89
f 135//81 128//84 156//87 163//82
f 138//85 122//74 148//77 167//86
f 164//90 155//91 188//92 195//93
f 147//94 160//95 191//96 180//97
f 215//20 228//48 11//51 8//21
f 168//98 147//94 180//97 199//99
f 172//100 151//101 184//102 203//103
f 151//101 164//90 195//93 184//102
f 155//91 168//98 199//99 188//92
f 160//95 143//104 176//105 191//96
f 344//106 345//107 227//108 216//109
f 346//110 342//111 231//112 220//113
f 341//114 339//115 208//116 223//117
f 345//107 346//110 220//113 227//108
f 343//118 341//114 223//117 212//119
f 211//28 224//52 10//55 7//29
f 342//111 343//118 212//119 231//112
f 340//120 344//106 216//109 235//121
f 391//122 390//123 15//124 20//125
f 388//126 392//127 16//128 21//129
f 350//106 351//107 259//130 248//131
f 352//110 354//111 263//132 252//133
f 389//134 387//135 14//136 18//137
f 393//138 394//139 17//140 19//141
f 349//118 353//114 255//142 244//143
f 347//115 348//120 267//144 240//145
f 392//127 393//138 19//141 16//128
f 390//123 389//134 18//137 15//124
f 354//111 349//118 244//143 263//132
f 348//120 350//106 248//131 267//144
f 394//139 391//122 20//125 17//140
f 353//114 347//115 240//145 255//142
f 351//107 352//110 252//133 259//130
f 372//115 371//120 29//146 22//147
f 374//110 373//111 28//148 25//149
f 373//111 375//118 23//150 28//148
f 376//114 372//115 22//147 26//151
f 375//118 376//114 26//151 23//150
f 378//106 377//107 27//152 24//153
f 371//120 378//106 24//153 29//146
f 377//107 374//110 25//149 27//152
f 356//154 355//155 32//156 37//157
f 358//158 357//159 33//160 35//161
f 359//162 356//154 37//157 30//163
f 357//159 360//164 36//165 33//160
f 360//164 361//166 31//167 36//165
f 362//168 359//162 30//163 34//169
f 361//166 362//168 34//169 31//167
f 355//155 358//158 35//161 32//156
f 34//169 30//163 38//170
f 31//167 34//169 38//170
f 32//156 35//161 38//170
f 37//157 32//156 38//170
f 35//161 33//160 38//170
f 30//163 37//157 38//170
f 33//160 36//165 38//170
f 36//165 31//167 38//170
f 551//171 543//172 456//173 400//174
f 544//175 548//176 395//177 455//178
f 396//179 404//180 468//181 459//182
f 403//183 399//184 464//185 467//186
f 459//182 468//181 484//187 475//188
f 547//189 539//190 404//180 396//179
f 540//191 552//192 399//184 403//183
f 400//174 456//173 472//193 463//194
f 479//195 488//196 504//197 495//198
f 463//194 472//193 488//196 479//195
f 467//186 464//185 480//199 483//200
f 487//201 476//202 492//203 503//204
f 563//205 559//206 523//207 536//208
f 483//200 480//199 496//209 499//210
f 503//204 492//203 508//211 519//212
f 475//188 484//187 500//213 491//214
f 570//215 566//216 535//217 528//218
f 491//214 500//213 516//219 507//220
f 495//198 504//197 520//221 511//222
f 499//210 496//209 512//223 515//224
f 555//225 567//226 527//227 532//228
f 535//217 537//229 538//230 536//208 523//207 525//231 526//232 524//233 531//234 533//235 534//236 532//228 527//227 529//237 530//238 528//218
f 562//239 558//240 531//234 524//233
f 43//59 46//241 48//242 47//243
f 46//241 50//244 51//245 48//242
f 44//40 49//246 51//245 50//244
f 49//246 53//247 54//248 51//245
f 45//9 52//249 54//248 53//247
f 52//249 47//243 48//242 54//248
f 48//242 51//245 54//248
f 59//70 62//250 64//251 63//252
f 62//250 66//253 67//254 64//251
f 60//6 65//255 67//254 66//253
f 65//255 69//256 70//257 67//254
f 61//44 68//258 70//257 69//256
f 68//258 63//252 64//251 70//257
f 64//251 67//254 70//257
f 75//23 78//259 80//260 79//261
f 78//259 82//262 83//263 80//260
f 76//16 81//264 83//263 82//262
f 81//264 85//265 86//266 83//263
f 77//3 84//267 86//266 85//265
f 84//267 79//261 80//260 86//266
f 80//260 83//263 86//266
f 91//56 94//268 96//269 95//270
f 94//268 98//271 99//272 96//269
f 92//14 97//273 99//272 98//271
f 97//273 101//274 102//275 99//272
f 93//31 100//276 102//275 101//274
f 100//276 95//270 96//269 102//275
f 96//269 99//272 102//275
f 291//41 44//40 50//244 303//277
f 303//277 50//244 46//241 304//278
f 304//278 46//241 43//59 305//58
f 104//46 59//70 63//252 106//279
f 106//279 63//252 68//258 105//280
f 105//280 68//258 61//44 103//43
f 275//281 56//68 58//67 276//282
f 276//282 58//67 57//66 277//283
f 277//283 57//66 55//65 278//284
f 112//72 91//56 95//270 114//285
f 114//285 95//270 100//276 113//286
f 113//286 100//276 93//31 111//7
f 279//287 88//37 90//36 280//288
f 280//288 90//36 89//35 281//289
f 281//289 89//35 87//34 282//290
f 108//24 75//23 79//261 110//291
f 110//291 79//261 84//267 109//292
f 109//292 84//267 77//3 107//2
f 283//293 72//63 74//62 284//294
f 284//294 74//62 73//61 285//295
f 285//295 73//61 71//60 286//296
f 116//10 45//9 53//247 118//297
f 118//297 53//247 49//246 117//298
f 117//298 49//246 44//40 115//17
f 45//9 104//46 106//279 52//249
f 52//249 106//279 105//280 47//243
f 47//243 105//280 103//43 43//59
f 91//56 108//24 110//291 94//268
f 94//268 110//291 109//292 98//271
f 98//271 109//292 107//2 92//14
f 59//70 112//72 114//285 62//250
f 62//250 114//285 113//286 66//253
f 66//253 113//286 111//7 60//6
f 75//23 116//10 118//297 78//259
f 78//259 118//297 117//298 82//262
f 82//262 117//298 115//17 76//16
f 1//69 5//39 4//64 39//299 41//300 42//301 40//302
f 132//75 122//74 124//303 133//304
f 133//304 124//303 123//71 131//47
f 138//85 128//84 130//305 139//306
f 139//306 130//305 129//57 137//73
f 135//81 125//80 127//307 136//308
f 136//308 127//307 126//26 134//25
f 141//88 119//78 121//309 142//310
f 142//310 121//309 120//12 140//11
f 119//78 132//75 133//304 121//309
f 121//309 133//304 131//47 120//12
f 128//84 135//81 136//308 130//305
f 130//305 136//308 134//25 129//57
f 122//74 138//85 139//306 124//303
f 124//303 139//306 137//73 123//71
f 125//80 141//88 142//310 127//307
f 127//307 142//310 140//11 126//26
f 207//53 236//19 13//22 6//54
f 164//90 151//101 153//311 166//312
f 166//312 153//311 154//313 165//314
f 165//314 154//313 152//83 163//82
f 168//98 155//91 157//315 170//316
f 170//316 157//315 158//317 169//318
f 169//318 158//317 156//87 167//86
f 160//95 147//94 149//319 162//320
f 162//320 149//319 150//321 161//322
f 161//322 150//321 148//77 159//76
f 172//100 143//104 145//323 174//324
f 174//324 145//323 146//325 173//326
f 173//326 146//325 144//79 171//89
f 143//104 160//95 162//320 145//323
f 145//323 162//320 161//322 146//325
f 146//325 161//322 159//76 144//79
f 155//91 164//90 166//312 157//315
f 157//315 166//312 165//314 158//317
f 158//317 165//314 163//82 156//87
f 147//94 168//98 170//316 149//319
f 149//319 170//316 169//318 150//321
f 150//321 169//318 167//86 148//77
f 151//101 172//100 174//324 153//311
f 153//311 174//324 173//326 154//313
f 154//313 173//326 171//89 152//83
f 119//78 141//88 171//89 144//79
f 196//327 183//328 185//329 198//330
f 198//330 185//329 186//331 197//332
f 197//332 186//331 184//102 195//93
f 200//333 187//334 189//335 202//336
f 202//336 189//335 190//337 201//338
f 201//338 190//337 188//92 199//99
f 192//339 179//340 181//341 194//342
f 194//342 181//341 182//343 193//344
f 193//344 182//343 180//97 191//96
f 204//345 175//346 177//347 206//348
f 206//348 177//347 178//349 205//350
f 205//350 178//349 176//105 203//103
f 175//346 192//339 194//342 177//347
f 177//347 194//342 193//344 178//349
f 178//349 193//344 191//96 176//105
f 187//334 196//327 198//330 189//335
f 189//335 198//330 197//332 190//337
f 190//337 197//332 195//93 188//92
f 179//340 200//333 202//336 181//341
f 181//341 202//336 201//338 182//343
f 182//343 201//338 199//99 180//97
f 183//328 204//345 206//348 185//329
f 185//329 206//348 205//350 186//331
f 186//331 205//350 203//103 184//102
f 143//104 172//100 203//103 176//105
f 228//48 215//20 217//351 230//352
f 230//352 217//351 218//353 229//354
f 229//354 218//353 216//109 227//108
f 232//27 219//49 221//355 234//356
f 234//356 221//355 222//357 233//358
f 233//358 222//357 220//113 231//112
f 224//52 211//28 213//359 226//360
f 226//360 213//359 214//361 225//362
f 225//362 214//361 212//119 223//117
f 236//19 207//53 209//363 238//364
f 238//364 209//363 210//365 237//366
f 237//366 210//365 208//116 235//121
f 207//53 224//52 226//360 209//363
f 209//363 226//360 225//362 210//365
f 210//365 225//362 223//117 208//116
f 219//49 228//48 230//352 221//355
f 221//355 230//352 229//354 222//357
f 222//357 229//354 227//108 220//113
f 211//28 232//27 234//356 213//359
f 213//359 234//356 233//358 214//361
f 214//361 233//358 231//112 212//119
f 215//20 236//19 238//364 217//351
f 217//351 238//364 237//366 218//353
f 218//353 237//366 235//121 216//109
f 339//115 340//120 235//121 208//116
f 260//367 247//368 249//369 262//370
f 262//370 249//369 250//371 261//372
f 261//372 250//371 248//131 259//130
f 264//373 251//374 253//375 266//376
f 266//376 253//375 254//377 265//378
f 265//378 254//377 252//133 263//132
f 256//379 243//380 245//381 258//382
f 258//382 245//381 246//383 257//384
f 257//384 246//383 244//143 255//142
f 268//385 239//386 241//387 270//388
f 270//388 241//387 242//389 269//390
f 269//390 242//389 240//145 267//144
f 239//386 256//379 258//382 241//387
f 241//387 258//382 257//384 242//389
f 242//389 257//384 255//142 240//145
f 251//374 260//367 262//370 253//375
f 253//375 262//370 261//372 254//377
f 254//377 261//372 259//130 252//133
f 243//380 264//373 266//376 245//381
f 245//381 266//376 265//378 246//383
f 246//383 265//378 263//132 244//143
f 247//368 268//385 270//388 249//369
f 249//369 270//388 269//390 250//371
f 250//371 269//390 267//144 248//131
f 387//135 388//126 21//129 14//136
f 327//391 285//295 286//296 328//392
f 326//393 284//294 285//295 327//391
f 316//394 283//293 284//294 326//393
f 324//395 281//289 282//290 325//396
f 323//397 280//288 281//289 324//395
f 315//398 279//287 280//288 323//397
f 321//399 277//283 278//284 322//400
f 320//401 276//282 277//283 321//399
f 314//402 275//281 276//282 320//401
f 42//301 273//403 274//404 40//302
f 41//300 272//405 273//403 42//301
f 39//299 271//406 272//405 41//300
f 40//302 274//404 287//42 1//69
f 1//69 287//42 278//284 55//65
f 4//64 288//18 271//406 39//299
f 3//33 289//8 282//290 87//34
f 72//63 283//293 288//18 4//64
f 88//37 279//287 290//1 2//38
f 56//68 275//281 289//8 3//33
f 2//38 290//1 286//296 71//60
f 60//6 306//5 292//407 65//255
f 65//255 292//407 293//408 69//256
f 69//256 293//408 294//45 61//44
f 92//14 307//13 295//409 97//273
f 97//273 295//409 296//410 101//274
f 101//274 296//410 297//32 93//31
f 76//16 308//15 298//411 81//264
f 81//264 298//411 299//412 85//265
f 85//265 299//412 300//4 77//3
f 312//413 304//278 305//58 313//414
f 311//415 303//277 304//278 312//413
f 319//416 291//41 303//277 311//415
f 313//414 305//58 309//42 317//42
f 317//42 309//42 294//45 322//400
f 329//18 301//18 291//41 319//416
f 318//8 310//8 297//32 325//396
f 316//394 308//15 301//18 329//18
f 315//398 307//13 302//1 330//1
f 314//402 306//5 310//8 318//8
f 330//1 302//1 300//4 328//392
f 290//1 330//1 328//392 286//296
f 275//281 314//402 318//8 289//8
f 279//287 315//398 330//1 290//1
f 283//293 316//394 329//18 288//18
f 289//8 318//8 325//396 282//290
f 288//18 329//18 319//416 271//406
f 287//42 317//42 322//400 278//284
f 274//404 313//414 317//42 287//42
f 271//406 319//416 311//415 272//405
f 272//405 311//415 312//413 273//403
f 273//403 312//413 313//414 274//404
f 306//5 314//402 320//401 292//407
f 292//407 320//401 321//399 293//408
f 293//408 321//399 322//400 294//45
f 307//13 315//398 323//397 295//409
f 295//409 323//397 324//395 296//410
f 296//410 324//395 325//396 297//32
f 308//15 316//394 326//393 298//411
f 298//411 326//393 327//391 299//412
f 299//412 327//391 328//392 300//4
f 11//51 9//50 338//110 337//107
f 10//55 6//54 332//115 331//114
f 13//22 8//21 336//106 333//120
f 12//30 7//29 335//118 334//111
f 6//54 13//22 333//120 332//115
f 7//29 10//55 331//114 335//118
f 9//50 12//30 334//111 338//110
f 8//21 11//51 337//107 336//106
f 175//346 204//345 340//120 339//115
f 204//345 183//328 344//106 340//120
f 200//333 179//340 343//118 342//111
f 179//340 192//339 341//114 343//118
f 196//327 187//334 346//110 345//107
f 192//339 175//346 339//115 341//114
f 187//334 200//333 342//111 346//110
f 183//328 196//327 345//107 344//106
f 337//107 338//110 352//110 351//107
f 331//114 332//115 347//115 353//114
f 333//120 336//106 350//106 348//120
f 334//111 335//118 349//118 354//111
f 332//115 333//120 348//120 347//115
f 335//118 331//114 353//114 349//118
f 338//110 334//111 354//111 352//110
f 336//106 337//107 351//107 350//106
f 367//155 364//158 358//158 355//155
f 370//166 366//168 362//168 361//166
f 366//168 365//162 359//162 362//168
f 369//164 370//166 361//166 360//164
f 368//159 369//164 360//164 357//159
f 365//162 363//154 356//154 359//162
f 364//158 368//159 357//159 358//158
f 363//154 367//155 355//155 356//154
f 29//146 24//153 367//155 363//154
f 27//152 25//149 368//159 364//158
f 22//147 29//146 363//154 365//162
f 25//149 28//148 369//164 368//159
f 28//148 23//150 370//166 369//164
f 26//151 22//147 365//162 366//168
f 23//150 26//151 366//168 370//166
f 24//153 27//152 364//158 367//155
f 386//107 380//110 374//110 377//107
f 383//120 382//106 378//106 371//120
f 382//106 386//107 377//107 378//106
f 385//118 381//114 376//114 375//118
f 381//114 379//115 372//115 376//114
f 384//111 385//118 375//118 373//111
f 380//110 384//111 373//111 374//110
f 379//115 383//120 371//120 372//115
f 14//136 21//129 383//120 379//115
f 17//140 20//125 384//111 380//110
f 20//125 15//124 385//118 384//111
f 18//137 14//136 379//115 381//114
f 15//124 18//137 381//114 385//118
f 16//128 19//141 386//107 382//106
f 21//129 16//128 382//106 383//120
f 19//141 17//140 380//110 386//107
f 239//386 268//385 388//126 387//135
f 251//374 264//373 391//122 394//139
f 243//380 256//379 389//134 390//123
f 247//368 260//367 393//138 392//127
f 260//367 251//374 394//139 393//138
f 256//379 239//386 387//135 389//134
f 268//385 247//368 392//127 388//126
f 264//373 243//380 390//123 391//122
f 471//417 460//418 476//202 487//201
f 551//171 421//419 571//420 574//421
f 445//422 420//423 409//424 433//425
f 407//426 410//427 412//428 411//429
f 410//427 414//430 415//431 412//428
f 408//432 413//433 415//431 414//430
f 413//433 417//434 418//435 415//431
f 409//424 416//436 418//435 417//434
f 416//436 411//429 412//428 418//435
f 412//428 415//431 418//435
f 419//437 422//438 424//439 423//440
f 422//438 426//441 427//442 424//439
f 420//423 425//443 427//442 426//441
f 425//443 429//444 430//445 427//442
f 421//419 428//446 430//445 429//444
f 428//446 423//440 424//439 430//445
f 424//439 427//442 430//445
f 431//447 434//448 436//449 435//450
f 434//448 438//451 439//452 436//449
f 432//453 437//454 439//452 438//451
f 437//454 441//455 442//456 439//452
f 433//425 440//457 442//456 441//455
f 440//457 435//450 436//449 442//456
f 436//449 439//452 442//456
f 443//458 446//459 448//460 447//461
f 446//459 450//462 451//463 448//460
f 444//464 449//465 451//463 450//462
f 449//465 453//466 454//467 451//463
f 445//422 452//468 454//467 453//466
f 452//468 447//461 448//460 454//467
f 448//460 451//463 454//467
f 540//191 403//183 405//469 542//470
f 542//470 405//469 406//471 541//472
f 541//472 406//471 404//180 539//190
f 544//175 455//178 457//473 546//474
f 546//474 457//473 458//475 545//476
f 545//476 458//475 456//173 543//172
f 409//424 420//423 426//441 416//436
f 416//436 426//441 422//438 411//429
f 411//429 422//438 419//437 407//426
f 433//425 409//424 417//434 440//457
f 440//457 417//434 413//433 435//450
f 435//450 413//433 408//432 431//447
f 445//422 433//425 441//455 452//468
f 452//468 441//455 437//454 447//461
f 447//461 437//454 432//453 443//458
f 420//423 445//422 453//466 425//443
f 425//443 453//466 449//465 429//444
f 429//444 449//465 444//464 421//419
f 400//174 463//194 465//477 402//478
f 402//478 465//477 466//479 401//480
f 401//480 466//479 464//185 399//184
f 468//181 404//180 406//471 470//481
f 470//481 406//471 405//469 469//482
f 469//482 405//469 403//183 467//186
f 396//179 459//182 461//483 398//484
f 398//484 461//483 462//485 397//486
f 397//486 462//485 460//418 395//177
f 472//193 456//173 458//475 474//487
f 474//487 458//475 457//473 473//488
f 473//488 457//473 455//178 471//417
f 459//182 475//188 477//489 461//483
f 461//483 477//489 478//490 462//485
f 462//485 478//490 476//202 460//418
f 488//196 472//193 474//487 490//491
f 490//491 474//487 473//488 489//492
f 489//492 473//488 471//417 487//201
f 467//186 483//200 485//493 469//482
f 469//482 485//493 486//494 470//481
f 470//481 486//494 484//187 468//181
f 480//199 464//185 466//479 482//495
f 482//495 466//479 465//477 481//496
f 481//496 465//477 463//194 479//195
f 483//200 499//210 501//497 485//493
f 485//493 501//497 502//498 486//494
f 486//494 502//498 500//213 484//187
f 492//203 476//202 478//490 494//499
f 494//499 478//490 477//489 493//500
f 493//500 477//489 475//188 491//214
f 487//201 503//204 505//501 489//492
f 489//492 505//501 506//502 490//491
f 490//491 506//502 504//197 488//196
f 496//209 480//199 482//495 498//503
f 498//503 482//495 481//496 497//504
f 497//504 481//496 479//195 495//198
f 495//198 511//222 513//505 497//504
f 497//504 513//505 514//506 498//503
f 498//503 514//506 512//223 496//209
f 516//219 500//213 502//498 518//507
f 518//507 502//498 501//497 517//508
f 517//508 501//497 499//210 515//224
f 491//214 507//220 509//509 493//500
f 493//500 509//509 510//510 494//499
f 494//499 510//510 508//211 492//203
f 520//221 504//197 506//502 522//511
f 522//511 506//502 505//501 521//512
f 521//512 505//501 503//204 519//212
f 555//225 532//228 534//236 556//513
f 556//513 534//236 533//235 557//514
f 557//514 533//235 531//234 558//240
f 559//206 508//211 510//510 560//515
f 560//515 510//510 509//509 561//516
f 561//516 509//509 507//220 562//239
f 563//205 536//208 538//230 564//517
f 564//517 538//230 537//229 565//518
f 565//518 537//229 535//217 566//216
f 567//226 512//223 514//506 568//519
f 568//519 514//506 513//505 569//520
f 569//520 513//505 511//222 570//215
f 548//176 432//453 438//451 550//521
f 550//521 438//451 434//448 549//522
f 549//522 434//448 431//447 547//189
f 552//192 419//437 423//440 554//523
f 554//523 423//440 428//446 553//524
f 553//524 428//446 421//419 551//171
f 407//426 540//191 542//470 410//427
f 410//427 542//470 541//472 414//430
f 414//430 541//472 539//190 408//432
f 443//458 544//175 546//474 446//459
f 446//459 546//474 545//476 450//462
f 450//462 545//476 543//172 444//464
f 395//177 548//176 550//521 397//486
f 397//486 550//521 549//522 398//484
f 398//484 549//522 547//189 396//179
f 399//184 552//192 554//523 401//480
f 401//480 554//523 553//524 402//478
f 402//478 553//524 551//171 400//174
f 455//178 395//177 460//418 471//417
f 530//238 569//520 570//215 528//218
f 529//237 568//519 569//520 530//238
f 527//227 567//226 568//519 529//237
f 522//511 565//518 566//216 520//221
f 521//512 564//517 565//518 522//511
f 519//212 563//205 564//517 521//512
f 526//232 561//516 562//239 524//233
f 525//231 560//515 561//516 526//232
f 523//207 559//206 560//515 525//231
f 518//507 557//514 558//240 516//219
f 517//508 556//513 557//514 518//507
f 515//224 555//225 556//513 517//508
f 507//220 516//219 558//240 562//239
f 515//224 512//223 567//226 555//225
f 511//222 520//221 566//216 570//215
f 519//212 508//211 559//206 563//205
f 421//419 444//464 572//525 571//420
f 444//464 543//172 573//526 572//525
f 543//172 551//171 574//421 573//526
f 544//175 443//458 572//525 573//526
f 443//458 432//453 575//527 572//525
f 432//453 548//176 576//528 575//527
f 548//176 544//175 573//526 576//528
f 431//447 408//432 577//529 575//527
f 539//190 547//189 576//528 578//530
f 547//189 431//447 575//527 576//528
f 408//432 539//190 578//530 577//529
f 552//192 540//191 578//530 574//421
f 540//191 407//426 577//529 578//530
f 419//437 552//192 574//421 571//420
f 407//426 419//437 571//420 577//529
f 574//421 578//530 576//528 573//526
f 572//525 575//527 581//531 579//532
f 1069//533 1071//534 584//535 586//536
f 577//529 571//420 580//537 582//538
f 571//420 572//525 579//532 580//537
f 575//527 577//529 582//538 581//531
f 1072//539 1070//540 585//541 583//542
f 1070//540 1069//533 586//536 585//541
f 1071//534 1072//539 583//542 584//535
f 585//541 586//536 584//535 583//542
f 1057//543 1056//544 590//545 591//546
f 1065//547 1064//548 598//549 599//550
f 1058//551 1057//543 591//546 592//552
f 1066//553 1065//547 599//550 600//554
f 1059//555 1058//551 592//552 593//556
f 1067//557 1066//553 600//554 601//558
f 1060//559 1059//555 593//556 594//560
f 1068//561 1067//557 601//558 602//562
f 1061//111 1060//559 594//560 595//563
f 1054//564 843//170 588//565
f 587//39 1068//561 602//562
f 1062//566 1061//111 595//563 596//567
f 1055//568 1054//564 588//565 589//569
f 1063//570 1062//566 596//567 597//571
f 1056//544 1055//568 589//569 590//545
f 1064//548 1063//570 597//571 598//549
f 590//545 589//569 604//572 605//573
f 598//549 597//571 612//574 613//575
f 591//546 590//545 605//573 606//576
f 599//550 598//549 613//575 614//577
f 592//552 591//546 606//576 607//578
f 600//554 599//550 614//577 615//579
f 593//556 592//552 607//578 608//580
f 601//558 600//554 615//579 616//581
f 594//560 593//556 608//580 609//582
f 602//562 601//558 616//581 617//583
f 595//563 594//560 609//582 610//584
f 588//565 843//170 603//585
f 587//39 602//562 617//583
f 596//567 595//563 610//584 611//586
f 589//569 588//565 603//585 604//572
f 597//571 596//567 611//586 612//574
f 609//582 608//580 623//587 624//588
f 617//583 616//581 631//589 632//590
f 610//584 609//582 624//588 625//591
f 603//585 843//170 618//592
f 587//39 617//583 632//590
f 611//586 610//584 625//591 626//593
f 604//572 603//585 618//592 619//594
f 612//574 611//586 626//593 627//595
f 605//573 604//572 619//594 620//596
f 613//575 612//574 627//595 628//597
f 606//576 605//573 620//596 621//598
f 614//577 613//575 628//597 629//599
f 607//578 606//576 621//598 622//600
f 615//579 614//577 629//599 630//601
f 608//580 607//578 622//600 623//587
f 616//581 615//579 630//601 631//589
f 628//597 627//595 642//602 643//603
f 621//598 620//596 635//604 636//605
f 629//599 628//597 643//603 644//606
f 622//600 621//598 636//605 637//607
f 630//601 629//599 644//606 645//608
f 623//587 622//600 637//607 638//609
f 631//589 630//601 645//608 646//610
f 624//588 623//587 638//609 639//611
f 632//590 631//589 646//610 647//612
f 625//591 624//588 639//611 640//110
f 618//592 843//170 633//613
f 587//39 632//590 647//612
f 626//593 625//591 640//110 641//614
f 619//594 618//592 633//613 634//615
f 627//595 626//593 641//614 642//602
f 620//596 619//594 634//615 635//604
f 647//612 646//610 661//616 662//617
f 640//110 639//611 654//618 655//619
f 633//613 843//170 648//620
f 587//39 647//612 662//617
f 641//614 640//110 655//619 656//621
f 634//615 633//613 648//620 649//622
f 642//602 641//614 656//621 657//623
f 635//604 634//615 649//622 650//624
f 643//603 642//602 657//623 658//625
f 636//605 635//604 650//624 651//626
f 644//606 643//603 658//625 659//627
f 637//607 636//605 651//626 652//628
f 645//608 644//606 659//627 660//629
f 638//609 637//607 652//628 653//630
f 646//610 645//608 660//629 661//616
f 639//611 638//609 653//630 654//618
f 651//626 650//624 665//631 666//632
f 659//627 658//625 673//633 674//634
f 652//628 651//626 666//632 667//635
f 660//629 659//627 674//634 675//636
f 653//630 652//628 667//635 668//637
f 661//616 660//629 675//636 676//638
f 654//618 653//630 668//637 669//639
f 662//617 661//616 676//638 677//640
f 655//619 654//618 669//639 670//641
f 648//620 843//170 663//642
f 587//39 662//617 677//640
f 656//621 655//619 670//641 671//643
f 649//622 648//620 663//642 664//644
f 657//623 656//621 671//643 672//645
f 650//624 649//622 664//644 665//631
f 658//625 657//623 672//645 673//633
f 670//641 669//639 684//646 685//647
f 663//642 843//170 678//648
f 587//39 677//640 692//649
f 671//643 670//641 685//647 686//650
f 664//644 663//642 678//648 679//651
f 672//645 671//643 686//650 687//652
f 665//631 664//644 679//651 680//653
f 673//633 672//645 687//652 688//654
f 666//632 665//631 680//653 681//655
f 674//634 673//633 688//654 689//656
f 667//635 666//632 681//655 682//657
f 675//636 674//634 689//656 690//658
f 668//637 667//635 682//657 683//659
f 676//638 675//636 690//658 691//660
f 669//639 668//637 683//659 684//646
f 677//640 676//638 691//660 692//649
f 689//656 688//654 703//661 704//662
f 682//657 681//655 696//663 697//664
f 690//658 689//656 704//662 705//665
f 683//659 682//657 697//664 698//666
f 691//660 690//658 705//665 706//667
f 684//646 683//659 698//666 699//668
f 692//649 691//660 706//667 707//669
f 685//647 684//646 699//668 700//107
f 678//648 843//170 693//670
f 587//39 692//649 707//669
f 686//650 685//647 700//107 701//671
f 679//651 678//648 693//670 694//672
f 687//652 686//650 701//671 702//673
f 680//653 679//651 694//672 695//674
f 688//654 687//652 702//673 703//661
f 681//655 680//653 695//674 696//663
f 587//39 707//669 722//675
f 701//671 700//107 715//676 716//677
f 694//672 693//670 708//678 709//679
f 702//673 701//671 716//677 717//680
f 695//674 694//672 709//679 710//681
f 703//661 702//673 717//680 718//682
f 696//663 695//674 710//681 711//683
f 704//662 703//661 718//682 719//684
f 697//664 696//663 711//683 712//685
f 705//665 704//662 719//684 720//686
f 698//666 697//664 712//685 713//687
f 706//667 705//665 720//686 721//688
f 699//668 698//666 713//687 714//689
f 707//669 706//667 721//688 722//675
f 700//107 699//668 714//689 715//676
f 693//670 843//170 708//678
f 720//686 719//684 734//690 735//691
f 713//687 712//685 727//692 728//693
f 721//688 720//686 735//691 736//694
f 714//689 713//687 728//693 729//695
f 722//675 721//688 736//694 737//696
f 715//676 714//689 729//695 730//697
f 708//678 843//170 723//698
f 587//39 722//675 737//696
f 716//677 715//676 730//697 731//699
f 709//679 708//678 723//698 724//700
f 717//680 716//677 731//699 732//701
f 710//681 709//679 724//700 725//702
f 718//682 717//680 732//701 733//703
f 711//683 710//681 725//702 726//704
f 719//684 718//682 733//703 734//690
f 712//685 711//683 726//704 727//692
f 724//700 723//698 738//705 739//706
f 732//701 731//699 746//707 747//708
f 725//702 724//700 739//706 740//709
f 733//703 732//701 747//708 748//710
f 726//704 725//702 740//709 741//711
f 734//690 733//703 748//710 749//712
f 727//692 726//704 741//711 742//713
f 735//691 734//690 749//712 750//714
f 728//693 727//692 742//713 743//715
f 736//694 735//691 750//714 751//716
f 729//695 728//693 743//715 744//717
f 737//696 736//694 751//716 752//718
f 730//697 729//695 744//717 745//719
f 723//698 843//170 738//705
f 587//39 737//696 752//718
f 731//699 730//697 745//719 746//707
f 743//715 742//713 757//720 758//721
f 751//716 750//714 765//722 766//723
f 744//717 743//715 758//721 759//724
f 752//718 751//716 766//723 767//725
f 745//719 744//717 759//724 760//106
f 738//705 843//170 753//726
f 587//39 752//718 767//725
f 746//707 745//719 760//106 761//727
f 739//706 738//705 753//726 754//728
f 747//708 746//707 761//727 762//729
f 740//709 739//706 754//728 755//730
f 748//710 747//708 762//729 763//731
f 741//711 740//709 755//730 756//732
f 749//712 748//710 763//731 764//733
f 742//713 741//711 756//732 757//720
f 750//714 749//712 764//733 765//722
f 762//729 761//727 776//734 777//735
f 755//730 754//728 769//736 770//737
f 763//731 762//729 777//735 778//738
f 756//732 755//730 770//737 771//739
f 764//733 763//731 778//738 779//740
f 757//720 756//732 771//739 772//741
f 765//722 764//733 779//740 780//742
f 758//721 757//720 772//741 773//743
f 766//723 765//722 780//742 781//744
f 759//724 758//721 773//743 774//745
f 767//725 766//723 781//744 782//746
f 760//106 759//724 774//745 775//747
f 753//726 843//170 768//748
f 587//39 767//725 782//746
f 761//727 760//106 775//747 776//734
f 754//728 753//726 768//748 769//736
f 781//744 780//742 795//749 796//750
f 774//745 773//743 788//751 789//752
f 782//746 781//744 796//750 797//753
f 775//747 774//745 789//752 790//754
f 768//748 843//170 783//755
f 587//39 782//746 797//753
f 776//734 775//747 790//754 791//756
f 769//736 768//748 783//755 784//757
f 777//735 776//734 791//756 792//758
f 770//737 769//736 784//757 785//759
f 778//738 777//735 792//758 793//760
f 771//739 770//737 785//759 786//761
f 779//740 778//738 793//760 794//762
f 772//741 771//739 786//761 787//763
f 780//742 779//740 794//762 795//749
f 773//743 772//741 787//763 788//751
f 785//759 784//757 799//764 800//765
f 793//760 792//758 807//766 808//767
f 786//761 785//759 800//765 801//768
f 794//762 793//760 808//767 809//769
f 787//763 786//761 801//768 802//770
f 795//749 794//762 809//769 810//771
f 788//751 787//763 802//770 803//772
f 796//750 795//749 810//771 811//773
f 789//752 788//751 803//772 804//774
f 797//753 796//750 811//773 812//775
f 790//754 789//752 804//774 805//776
f 783//755 843//170 798//777
f 587//39 797//753 812//775
f 791//756 790//754 805//776 806//778
f 784//757 783//755 798//777 799//764
f 792//758 791//756 806//778 807//766
f 810//771 809//769 824//779 825//780
f 803//772 802//770 817//781 818//782
f 811//773 810//771 825//780 826//783
f 804//774 803//772 818//782 819//784
f 812//775 811//773 826//783 827//785
f 805//776 804//774 819//784 820//120
f 798//777 843//170 813//786
f 587//39 812//775 827//785
f 806//778 805//776 820//120 821//787
f 799//764 798//777 813//786 814//788
f 807//766 806//778 821//787 822//789
f 800//765 799//764 814//788 815//790
f 808//767 807//766 822//789 823//791
f 801//768 800//765 815//790 816//792
f 809//769 808//767 823//791 824//779
f 802//770 801//768 816//792 817//781
f 822//789 821//787 836//793 837//794
f 815//790 814//788 829//795 830//796
f 823//791 822//789 837//794 838//797
f 816//792 815//790 830//796 831//798
f 824//779 823//791 838//797 839//799
f 817//781 816//792 831//798 832//800
f 825//780 824//779 839//799 840//801
f 818//782 817//781 832//800 833//802
f 826//783 825//780 840//801 841//803
f 819//784 818//782 833//802 834//804
f 827//785 826//783 841//803 842//805
f 820//120 819//784 834//804 835//806
f 813//786 843//170 828//807
f 587//39 827//785 842//805
f 821//787 820//120 835//806 836//793
f 814//788 813//786 828//807 829//795
f 841//803 840//801 856//808 857//809
f 834//804 833//802 849//810 850//811
f 842//805 841//803 857//809 858//812
f 835//806 834//804 850//811 851//813
f 828//807 843//170 844//814
f 587//39 842//805 858//812
f 836//793 835//806 851//813 852//815
f 829//795 828//807 844//814 845//816
f 837//794 836//793 852//815 853//817
f 830//796 829//795 845//816 846//818
f 838//797 837//794 853//817 854//819
f 831//798 830//796 846//818 847//820
f 839//799 838//797 854//819 855//821
f 832//800 831//798 847//820 848//822
f 840//801 839//799 855//821 856//808
f 833//802 832//800 848//822 849//810
f 846//818 845//816 860//823 861//824
f 854//819 853//817 868//825 869//826
f 847//820 846//818 861//824 862//827
f 855//821 854//819 869//826 870//828
f 848//822 847//820 862//827 863//829
f 856//808 855//821 870//828 871//830
f 849//810 848//822 863//829 864//831
f 857//809 856//808 871//830 872//832
f 850//811 849//810 864//831 865//833
f 858//812 857//809 872//832 873//834
f 851//813 850//811 865//833 866//835
f 844//814 843//170 859//836
f 587//39 858//812 873//834
f 852//815 851//813 866//835 867//837
f 845//816 844//814 859//836 860//823
f 853//817 852//815 867//837 868//825
f 865//833 864//831 879//838 880//839
f 873//834 872//832 887//840 888//841
f 866//835 865//833 880//839 881//115
f 859//836 843//170 874//842
f 587//39 873//834 888//841
f 867//837 866//835 881//115 882//843
f 860//823 859//836 874//842 875//844
f 868//825 867//837 882//843 883//845
f 861//824 860//823 875//844 876//846
f 869//826 868//825 883//845 884//847
f 862//827 861//824 876//846 877//848
f 870//828 869//826 884//847 885//849
f 863//829 862//827 877//848 878//850
f 871//830 870//828 885//849 886//851
f 864//831 863//829 878//850 879//838
f 872//832 871//830 886//851 887//840
f 884//847 883//845 898//852 899//853
f 877//848 876//846 891//854 892//855
f 885//849 884//847 899//853 900//856
f 878//850 877//848 892//855 893//857
f 886//851 885//849 900//856 901//858
f 879//838 878//850 893//857 894//859
f 887//840 886//851 901//858 902//860
f 880//839 879//838 894//859 895//861
f 888//841 887//840 902//860 903//862
f 881//115 880//839 895//861 896//863
f 874//842 843//170 889//864
f 587//39 888//841 903//862
f 882//843 881//115 896//863 897//865
f 875//844 874//842 889//864 890//866
f 883//845 882//843 897//865 898//852
f 876//846 875//844 890//866 891//854
f 903//862 902//860 917//867 918//868
f 896//863 895//861 910//869 911//870
f 889//864 843//170 904//871
f 587//39 903//862 918//868
f 897//865 896//863 911//870 912//872
f 890//866 889//864 904//871 905//873
f 898//852 897//865 912//872 913//874
f 891//854 890//866 905//873 906//875
f 899//853 898//852 913//874 914//876
f 892//855 891//854 906//875 907//877
f 900//856 899//853 914//876 915//878
f 893//857 892//855 907//877 908//879
f 901//858 900//856 915//878 916//880
f 894//859 893//857 908//879 909//881
f 902//860 901//858 916//880 917//867
f 895//861 894//859 909//881 910//869
f 907//877 906//875 921//882 922//883
f 915//878 914//876 929//884 930//885
f 908//879 907//877 922//883 923//886
f 916//880 915//878 930//885 931//887
f 909//881 908//879 923//886 924//888
f 917//867 916//880 931//887 932//889
f 910//869 909//881 924//888 925//890
f 918//868 917//867 932//889 933//891
f 911//870 910//869 925//890 926//892
f 904//871 843//170 919//893
f 587//39 918//868 933//891
f 912//872 911//870 926//892 927//894
f 905//873 904//871 919//893 920//895
f 913//874 912//872 927//894 928//896
f 906//875 905//873 920//895 921//882
f 914//876 913//874 928//896 929//884
f 926//892 925//890 940//897 941//114
f 919//893 843//170 934//898
f 587//39 933//891 948//899
f 927//894 926//892 941//114 942//900
f 920//895 919//893 934//898 935//901
f 928//896 927//894 942//900 943//902
f 921//882 920//895 935//901 936//903
f 929//884 928//896 943//902 944//904
f 922//883 921//882 936//903 937//905
f 930//885 929//884 944//904 945//906
f 923//886 922//883 937//905 938//907
f 931//887 930//885 945//906 946//908
f 924//888 923//886 938//907 939//909
f 932//889 931//887 946//908 947//910
f 925//890 924//888 939//909 940//897
f 933//891 932//889 947//910 948//899
f 945//906 944//904 959//911 960//912
f 938//907 937//905 952//913 953//914
f 946//908 945//906 960//912 961//915
f 939//909 938//907 953//914 954//916
f 947//910 946//908 961//915 962//917
f 940//897 939//909 954//916 955//918
f 948//899 947//910 962//917 963//919
f 941//114 940//897 955//918 956//920
f 934//898 843//170 949//921
f 587//39 948//899 963//919
f 942//900 941//114 956//920 957//922
f 935//901 934//898 949//921 950//923
f 943//902 942//900 957//922 958//924
f 936//903 935//901 950//923 951//925
f 944//904 943//902 958//924 959//911
f 937//905 936//903 951//925 952//913
f 587//39 963//919 978//926
f 957//922 956//920 971//927 972//928
f 950//923 949//921 964//929 965//930
f 958//924 957//922 972//928 973//931
f 951//925 950//923 965//930 966//932
f 959//911 958//924 973//931 974//933
f 952//913 951//925 966//932 967//934
f 960//912 959//911 974//933 975//935
f 953//914 952//913 967//934 968//936
f 961//915 960//912 975//935 976//937
f 954//916 953//914 968//936 969//938
f 962//917 961//915 976//937 977//939
f 955//918 954//916 969//938 970//940
f 963//919 962//917 977//939 978//926
f 956//920 955//918 970//940 971//927
f 949//921 843//170 964//929
f 976//937 975//935 990//941 991//942
f 969//938 968//936 983//943 984//944
f 977//939 976//937 991//942 992//945
f 970//940 969//938 984//944 985//946
f 978//926 977//939 992//945 993//947
f 971//927 970//940 985//946 986//948
f 964//929 843//170 979//949
f 587//39 978//926 993//947
f 972//928 971//927 986//948 987//950
f 965//930 964//929 979//949 980//951
f 973//931 972//928 987//950 988//952
f 966//932 965//930 980//951 981//953
f 974//933 973//931 988//952 989//954
f 967//934 966//932 981//953 982//955
f 975//935 974//933 989//954 990//941
f 968//936 967//934 982//955 983//943
f 980//951 979//949 994//956 995//957
f 988//952 987//950 1002//958 1003//959
f 981//953 980//951 995//957 996//960
f 989//954 988//952 1003//959 1004//961
f 982//955 981//953 996//960 997//962
f 990//941 989//954 1004//961 1005//963
f 983//943 982//955 997//962 998//964
f 991//942 990//941 1005//963 1006//965
f 984//944 983//943 998//964 999//966
f 992//945 991//942 1006//965 1007//967
f 985//946 984//944 999//966 1000//968
f 993//947 992//945 1007//967 1008//969
f 986//948 985//946 1000//968 1001//118
f 979//949 843//170 994//956
f 587//39 993//947 1008//969
f 987//950 986//948 1001//118 1002//958
f 999//966 998//964 1013//970 1014//971
f 1007//967 1006//965 1021//972 1022//973
f 1000//968 999//966 1014//971 1015//974
f 1008//969 1007//967 1022//973 1023//975
f 1001//118 1000//968 1015//974 1016//976
f 994//956 843//170 1009//977
f 587//39 1008//969 1023//975
f 1002//958 1001//118 1016//976 1017//978
f 995//957 994//956 1009//977 1010//979
f 1003//959 1002//958 1017//978 1018//980
f 996//960 995//957 1010//979 1011//981
f 1004//961 1003//959 1018//980 1019//982
f 997//962 996//960 1011//981 1012//983
f 1005//963 1004//961 1019//982 1020//984
f 998//964 997//962 1012//983 1013//970
f 1006//965 1005//963 1020//984 1021//972
f 1018//980 1017//978 1032//985 1033//986
f 1011//981 1010//979 1025//987 1026//988
f 1019//982 1018//980 1033//986 1034//989
f 1012//983 1011//981 1026//988 1027//990
f 1020//984 1019//982 1034//989 1035//991
f 1013//970 1012//983 1027//990 1028//992
f 1021//972 1020//984 1035//991 1036//993
f 1014//971 1013//970 1028//992 1029//994
f 1022//973 1021//972 1036//993 1037//995
f 1015//974 1014//971 1029//994 1030//996
f 1023//975 1022//973 1037//995 1038//997
f 1016//976 1015//974 1030//996 1031//998
f 1009//977 843//170 1024//999
f 587//39 1023//975 1038//997
f 1017//978 1016//976 1031//998 1032//985
f 1010//979 1009//977 1024//999 1025//987
f 1037//995 1036//993 1051//1000 1052//1001
f 1030//996 1029//994 1044//1002 1045//1003
f 1038//997 1037//995 1052//1001 1053//1004
f 1031//998 1030//996 1045//1003 1046//1005
f 1024//999 843//170 1039//1006
f 587//39 1038//997 1053//1004
f 1032//985 1031//998 1046//1005 1047//1007
f 1025//987 1024//999 1039//1006 1040//1008
f 1033//986 1032//985 1047//1007 1048//1009
f 1026//988 1025//987 1040//1008 1041//1010
f 1034//989 1033//986 1048//1009 1049//1011
f 1027//990 1026//988 1041//1010 1042//1012
f 1035//991 1034//989 1049//1011 1050//1013
f 1028//992 1027//990 1042//1012 1043//1014
f 1036//993 1035//991 1050//1013 1051//1000
f 1029//994 1028//992 1043//1014 1044//1002
f 1041//1010 1040//1008 1055//568 1056//544
f 1049//1011 1048//1009 1063//570 1064//548
f 1042//1012 1041//1010 1056//544 1057//543
f 1050//1013 1049//1011 1064//548 1065//547
f 1043//1014 1042//1012 1057//543 1058//551
f 1051//1000 1050//1013 1065//547 1066//553
f 1044//1002 1043//1014 1058//551 1059//555
f 1052//1001 1051//1000 1066//553 1067//557
f 1045//1003 1044//1002 1059//555 1060//559
f 1053//1004 1052//1001 1067//557 1068//561
f 1046//1005 1045//1003 1060//559 1061//111
f 1039//1006 843//170 1054//564
f 587//39 1053//1004 1068//561
f 1047//1007 1046//1005 1061//111 1062//566
f 1040//1008 1039//1006 1054//564 1055//568
f 1048//1009 1047//1007 1062//566 1063//570
f 581//531 582//538 1069//533 1070//540
f 582//538 580//537 1071//534 1069//533
f 579//532 581//531 1070//540 1072//539
f 580//537 579//532 1072//539 1071//534
